﻿Aashika,
Abha,
Abhati,
Abhaya,
Abhidha,
Abhidhya,
Abhijna,
Abhilasa,
Abhilasha,
Abhinithi,
Abhiprithi,
Abhirathi,
Abhisri,
Abhithi,
Abja,
Aboil,
Achala,
Acira,
Adarsha,
Adhira,
Adishree,
Aditha,
Adithi,
Aditi,
Adrija,
Adrika,
Advika,
Adya,
Aghanashini,
Agrata,
Agrima,
Ahalya,
Ahilya,
Ahladita,
Ahladitha,
Aishani,
Aishwarya,
Ajala,
Ajanta,
Ajeeta,
Akalka,
Akanksha,
Akhila,
Akriti,
Akshaya,
Akshita,
Aksithi,
Akuti,
"Alaka, Alka ",
Alaknanda,
Alisha,
Alka,
Almas,
Alopa,
Alpa,
Alpana,
"Amala, Amla ",
Amani,
Amari,
Amarta,
Amba,
Ambalika,
Ambika,
Ambu,
Ambuda,
Ambuja,
Amita,
Amithi,
Amiya,
Amoda,
Amodini,
Amrapali,
Amrita,
Amritkala,
Amrusha,
Amshula,
Amulya,
Anagha,
Anahita,
Anala,
Anamika,
Anandalakshmi,
Anandamayi,
Anandi,
Anandini,
Anandita,
"Anantha, Anantya",
Ananya,
Anarghya,
Anasuya,
Anathi,
Anavi,
Anchal,
Anchita,
Angana,
Angarika,
Anhithi,
Anindita,
Aninditha,
Anisha,
Anita,
Anjali,
Anjalika,
Anjana,
Anju,
"Anjushri, Anjushree",
Ankita,
Ankitha,
Annapurna,
Anokhi,
Anshula,
Antara,
Antini,
Anuga,
Anula,
Anulekha,
Anumati,
Anunitha,
Anupama,
Anuprabha,
Anuradha,
Anuragini,
Anurati,
Anusha,
Anushri,
Anusri,
Anuva,
Anwesha,
Anya,
Apala,
Aparajita,
Aparijita,
Aparna,
Apeksha,
Apsara,
"Apurva, Apoorva",
Aradhana,
Arati,
"Arati, Aaarti ",
Archa,
Archan,
Archana,
Archisha,
Archita,
Ariktha,
Arpana,
Arpita,
Arshia,
Aruna,
Arundhathi,
Arundhati,
Aruni,
Arunima,
Arushi,
Asavari,
"Aseema, Ashima ",
Asgari,
Asha,
Ashakiran,
Ashalata,
Ashavari,
Ashis,
Ashna,
Ashoka,
Ashritha,
Ashwini,
Asita,
Aslesha,
Asmita,
Asvika,
Atasi,
Atmaja,
Atreyi,
Avani,
"Avani, Abani ",
Avanti,
Avantika,
Ayesha,
Ayushmati,
Bageshri,
Bakula,
Bala,
Bandhura,
Bani,
Bhagyalakshmi,
Bhairavi,
Bhanuja,
Bharati,
Bhavana,
Bhavani,
Bhavya,
Bhuvana,
Bina,
Bindiya,
Brinda,
Cauvery,
Chadna,
Chahana,
Chaitali,
Chaitaly,
Chaitanya,
Chakori,
Chakrika,
Chameli,
Champa,
Champabati,
Champakali,
Champakavathi,
Champamalini,
Champika,
Chanasya,
Chanchala,
Chanda,
Chandalini,
Chandana,
Chandani,
Chandanika,
Chandika,
Chandni,
Chandrabali,
Chandrabhaga,
Chandrabindu,
Chandraja,
Chandrakala,
Chandraki,
Chandrakin,
Chandraleksha,
Chandramathi,
Chandramukhi,
Chandrani,
Chandratara,
Chandravathi,
Chandrika,
Chandrima,
Changuna,
Chapala,
Charita,
Charitra,
Charu,
Charulata,
Charulekha,
Charumati,
Charuprabha,
Charusheela,
Charusila,
Charvi,
Chatura,
Chayana,
Chellam,
Chetana,
Chhabi,
Chhavvi,
Chhaya,
Chimayi,
Chinmayi,
"Chintan, Chintana, Chintanika",
Chiti,
Chitkala,
Chitra,
Chitragandha,
Chitralekha,
Chitrali,
Chitramala,
Chitramaya,
Chitrangada,
Chitrani,
Chitrarathi,
Chitrarekha,
Chitrita,
Chumban,
Dadhija,
Daksha,
Dakshakanya,
Dakshata,
Dakshayani,
Dakshina,
Dalaja,
Damayanti,
Damini,
Darika,
Darpana,
Darpanika,
Darshana,
Darshini,
Daya,
Dayamayee,
Dayanita,
Dayita,
Debanshi,
Deeba,
Deepa,
Deepabali,
Deepali,
Deepamala,
Deepana,
Deepanwita,
Deepaprabha,
Deepashikha,
Deepika,
Deepitha,
Deepta,
Deepti,
Deeptikana,
Deeptimoyee,
Deshna,
Devahuti,
Devak,
Devakanya,
Devaki,
Devalatha,
Devalekha,
Devamati,
Devamayi,
Devangana,
Devasmitha,
Devasree,
Devika,
Devina,
Devya,
Devyani,
Dhanalakshmi,
Dhanapriya,
Dhanashri,
Dhanishta,
Dhanya,
Dhanyata,
Dhara,
Dharani,
Dharini,
Dharitri,
Dhatri,
Dhitha,
Dhithi,
Dhriti,
Dhuthi,
Diksha,
Dilber,
Dilshad,
Disha,
Diti,
Divena,
Divya,
Doyel,
Draupadi,
Dristi,
Druthi,
Dulari,
Durga,
"Durva, Durba",
Dwipavati,
Ecchumati,
Edhitha,
Ehimaya,
Eka,
Ekadhana,
Ekaja,
Ekantha,
Ekanthika,
Ekaparana,
"Ekata, Ektaa",
Ekavali,
Ekisha,
Ekta,
Ela,
Elampirai,
Elavarasi,
Elili,
Enakshi,
Esha,
Eshana,
Eshanika,
Eshanya,
Eshika,
Eshita,
"Ethaha, Etasha",
Faiza,
Fajyaz,
"Falguni, Phalguni",
Farha,
Faria,
Farida,
"Fatima, Fatma",
Fawiza,
Firoza,
"Foolan, Phoolan",
"Foolwati, Phoolwati",
Fulki,
Fullara,
Gagana,
Gaganadipika,
Gaganasindhu,
Gajagamini,
Gajalakshmi,
Gajra,
Ganda,
Gandha,
Gandhali,
Gandhara,
Gandhari,
Gandharika,
Gandhini,
Ganga,
"Ganga, Gangotri",
Gangika,
Ganitha,
Garati,
Gargi,
Gathika,
Gatita,
Gauhar,
Gaura,
Gauri,
Gaurika,
Gautami,
Gayana,
Gayanthika,
Gayatri,
Gazala,
Geena,
Geeta,
Geeti,
Geetika,
Geshna,
Girija,
Girika,
Gita,
Gitali,
Gitanjali,
Gitika,
Godavari,
Gomati,
Gool,
Gopa,
"Gopi, Gopika",
Gopika,
Gorochana,
Gourangi,
Govindi,
Grhalakshmi,
Grhitha,
Gudiya,
Gulab,
Gulika,
Gunasundari,
Gunitha,
Gunjana,
Gunjika,
Gunjita,
Gunwanti,
Gurjari,
Gyanada,
Habiba,
Hafiza,
Haimavati,
Hamsa,
Hanima,
Hansa,
Hansanandini,
Hansaveni,
Hansika,
Hansini,
Hariganga,
Harijatha,
Harimanti,
Harinakshi,
Harini,
Haripriya,
Harita,
Harithi,
Harmya,
Harsha,
Harshada,
Harshini,
Harshita,
Harshitha,
Hasanthi,
Hasika,
Hasina,
Hasita,
Hasna,
Hasumati,
Hatisha,
Heera,
Hema,
Hemakshi,
Hemangi,
Hemangini,
Hemanti,
Hemanya,
Hemavati,
Hemlata,
Hena,
Henna,
Hetal,
Hima,
Himagouri,
Himani,
Hina,
Hindola,
Hiral,
Hiranmayi,
Hiranya,
Hiranyadha,
Hirkani,
Hita,
Hiya,
Holika,
Hoor,
Hradha,
Husna,
Ibha,
Idhika,
Idhitri,
Iha,
Ihina,
Ihitha,
Iksha,
Ikshana,
Ikshitha,
Ikshu,
Ila,
Ilampirai,
Ilavalagi,
Ilavenil,
Ilisha,
Ina,
Inayat,
Indira,
Indiya,
Indrakshi,
Indrani,
Indrasena,
Indratha,
Indrayani,
Indu,
Induja,
Indukala,
Indulala,
Induleksh,
Induma,
Indumati,
Indumukhi,
Inika,
Iniya,
Inkurali,
Ipsa,
Ipsita,
Ira,
Iraja,
Iravati,
Isai,
Isha,
Ishana,
Ishani,
Ishanika,
Ishanya,
Ishika,
Ishita,
Ishrat,
Ishwari,
Ivy,
Iyalisai,
Jabeen,
Jagadamba,
Jagathi,
Jagavi,
Jagrati,
Jagriti,
Jahanara,
Jaheel,
Jahnavi,
Jailekha,
Jaiman,
Jaimathi,
Jaipriya,
Jaishree,
Jaisudha,
Jaiwanti,
Jalabala,
Jaladhi,
Jaladhija,
Jalahasini,
Jalaja,
Jalanhili,
Jalela,
Jamini,
Jamuna,
Janaki,
Janani,
Janhavi,
Janhitha,
Janitha,
Jansi,
Januja,
Janya,
Jasoda,
Jasodhara,
Jaya,
Jayalakshmi,
Jayalalita,
Jayamala,
Jayani,
Jayanti,
Jayantika,
Jayaprada,
Jayashree,
Jayashri,
Jayati,
Jayita,
Jayitri,
Jayshri,
Jeeval,
Jeevankala,
Jeevanlata,
Jeevika,
Jenya,
Jetashri,
Jharna,
Jhilmil,
Jhinuk,
Jigya,
Jithya,
Jivika,
Joel,
Joshita,
Jowaki,
Juhi,
Jui,
Juily,
Jyoti,
Jyotibala,
Jyotika,
Jyotirmoyee,
Jyotishmati,
Jyotsna,
Kaandhal,
Kadambari,
Kadambini,
Kadhiroli,
Kahini,
Kaishori,
Kajal,
Kajjali,
Kajri,
Kakali,
Kala,
Kalaimagal,
Kalaka,
Kalandhika,
Kalanidhi,
Kalavati,
Kali,
Kalika,
Kalindi,
Kallol,
Kalpana,
Kalpini,
Kalpita,
Kalya,
Kalyani,
Kamadha,
Kamakshi,
Kamala,
Kamalakshi,
Kamali,
Kamalika,
Kamalini,
Kamalkali,
Kamana,
Kamika,
Kamini,
Kamitha,
Kamna,
Kampana,
Kamya,
Kana,
"Kanak, Kanaka",
Kanaka,
Kanakabati,
Kanaklata,
Kanakpriya,
Kanan,
Kananbala,
Kanchan,
Kanchana,
Kanchi,
Kandhara,
Kangana,
Kanika,
Kanimoli,
Kanitha,
Kanjari,
Kankana,
Kanmani,
Kanta,
Kanti,
Kanya,
Kanyana,
Kapalini,
Kapardini,
Kapila,
Kapotakshi,
Karabi,
Karishma,
Karuka,
Karuna,
Karunamayi,
Karunya,
Kashi,
Kashmira,
Kasturi,
Katyayani,
Kaumudi,
Kaushalya,
Kaushika,
Kavana,
Kaveri,
Kavika,
Kavini,
Kavita,
Kavya,
Kayalvili,
Keertana,
Kesar,
Kesari,
Keshi,
Keshika,
Keshini,
Ketaki,
Ketana,
Keya,
Khyati,
Kilimoli,
Kimaya,
Kiran,
Kiranmala,
Kirtana,
Kirti,
Kishori,
Kiya,
Kokila,
Komal,
Komala,
Koyel,
Krandasi,
Kranti,
Kripa,
Krishna,
Krishnaa,
Krishnakali,
Krithi,
Krithya,
Kriti,
Krittika,
Kriya,
Krupa,
Ksema,
Kshama,
Kshanika,
Kshithi,
Kumari,
Kumkum,
Kumud,
Kumudini,
Kunda,
Kundan,
Kundanika,
Kundini,
Kunjal,
Kunjalata,
Kunjana,
Kuntal,
Kuntala,
Kunti,
Kurangi,
Kurinji,
Kushala,
Kusum,
Kusuma,
Kusumanjali,
Kusumavati,
Kusumita,
Kusumlata,
Kuvalai,
Kuyil,
Kuyilsai,
Labangalata,
Laboni,
Lajja,
Lajjawati,
Lajwanti,
Lajwati,
Laksha,
Lakshana,
Lakshmi,
Lakshmishree,
Lalan,
Lalana,
Lali,
Lalima,
Lalita,
Lata,
Latangi,
Latika,
Lavali,
Lavangi,
Lavanya,
Leela,
Leelamayee,
Leelavati,
Leena,
Lekha,
Lily,
Lipi,
Lipika,
Lochan,
Lochana,
Lohita,
Lola,
Lona,
Lopa,
Lopamudra,
Madhavi,
Madhavilata,
Madhu,
Madhubala,
Madhuchhanda,
Madhuja,
Madhuksara,
Madhula,
Madhulata,
Madhulekha,
Madhulika,
Madhumalati,
Madhumati,
Madhumita,
Madhunisha,
Madhur,
Madhura,
Madhuri,
Madhurima,
Madhushri,
Madira,
Madirakshi,
Madri,
Madura,
Mahadevi,
Mahaganga,
Mahagauri,
Mahajabeen,
Mahalakshmi,
Mahamaya,
Mahasweta,
Mahati,
Mahi,
Mahijuba,
Mahika,
Mahima,
Mahitha,
Mahiya,
Mahua,
Mahubala,
Maina,
"Maithili, Mythili",
Maitra,
Maitreya,
Maitreyi,
Maitri,
Makshi,
Mala,
Malarvili,
Malashree,
Malati,
Malavika,
Malaya,
Malika,
Malina,
Malini,
Malliga,
Mallika,
Malti,
Mamata,
Manadha,
Manaka,
Manal,
Manali,
Manana,
Mananya,
Manasa,
Manasi,
Manasika,
Manasvi,
Manavi,
Manayi,
Manda,
Mandakini,
Mandakranta,
Mandana,
Mandara,
Mandarmalika,
Mandira,
Manditha,
Mandra,
Mangai,
Mangala,
Mangalya,
Manideepa,
Manik,
Manika,
Manikuntala,
Manimala,
Manimekhala,
Manini,
Manisha,
"Manisha, Mohisha",
Manisi,
Manisila,
Manisitha,
Manitha,
Maniya,
Manjari,
Manjira,
Manjistha,
Manju,
Manjubala,
Manjula,
Manjulika,
Manjusha,
Manjushri,
Manjusri,
Manjyot,
Manmayi,
Manorama,
Manoritha,
Manthika,
Manushri,
Manya,
Marala,
Marichi,
Marisa,
Markandeya,
Marudham,
Masilmani,
Matangi,
Maushmi,
Mausumi,
Maya,
Mayil,
Mayukhi,
Mayura,
Mayuri,
Mayurika,
Medha,
Medhani,
Medhya,
Medini,
Meena,
Meenakshi,
Meera,
Megha,
Meghamala,
Meghana,
Mehal,
Mehbooba,
Meher,
Mehrunissa,
Mehul,
Mekhala,
Mena,
Menaka,
Menitha,
Menmoli,
Mihika,
Milana,
Milika,
Minakshi,
Minal,
Minati,
Minnoli,
Mirium,
Mita,
Mitali,
Mithi,
Mithra,
Mohana,
Mohini,
Mohitha,
Moksha,
Monisha,
Mridula,
Mriganayani,
Mrinal,
Mrinali,
Mrinalini,
Mrinmayi,
Mrudani,
Mrudu,
Mudra,
Mudrika,
Mugdha,
Mukta,
Mukti,
Mukul,
Mullai,
Muniya,
Muskan,
Muthammal,
Mutholi,
Muthunagai,
Mythily,
Naaz,
Nabhanya,
Nabhitha,
Nabhya,
Nachni,
Nadira,
Naganandini,
Naganika,
Nagina,
Naima,
Naina,
Najma,
Nalina,
Nalini,
Namita,
Namrata,
Namya,
Nanda,
Nandana,
Nandika,
Nandini,
Nandita,
Nangai,
Narayani,
Narmada,
Narois,
Nartan,
Naseen,
Natun,
Nauka,
Navaneeta,
Naveena,
Naviya,
Navya,
Nayana,
Nayantara,
Nazima,
Neeharika,
Neela,
Neelabja,
Neelakshi,
Neelam,
Neelanjana,
Neelkamal,
Neepa,
Neeraja,
Neeta,
Neeti,
Neha,
Nehal,
Netra,
Netravati,
Nidhi,
Nidhyana,
Nidhyathi,
Nidra,
Niharika,
Nikhila,
Nikhita,
Nila,
Nilasha,
Nilavoli,
Nilaya,
Nileen,
Nilima,
Niloufer,
Nimisha,
Nina,
Niraimadhi,
Niral,
Niranjana,
Nirmala,
Nirmayi,
Nirmitha,
Nirupa,
Nirupama,
Nisha,
Nishithini,
Nishtha,
Nita,
Nitha,
Nithilam,
Niti,
Nitima,
Nitya,
Nityapriya,
Nivedita,
Nivritti,
Niyati,
Noopur,
Noor,
Noorjehan,
Nupura,
Nusrat,
Nutan,
Nuti,
Odathi,
Ojal,
Ojaswini,
Omala,
Omana,
Omvati,
Oviya,
Padma,
Padmaja,
Padmajai,
Padmakali,
Padmal,
Padmalaya,
Padmalochana,
Padmaroopa,
Padmavati,
Padmini,
Pakhi,
Pakshi,
Pallavi,
Pallavini,
Panchali,
Pankaja,
Panna,
Panya,
Parama,
Parameshwari,
Paramita,
Pari,
Paridhi,
Parinita,
Parnal,
Parnashri,
Parni,
Parnik,
Parnika,
Parthivi,
Parul,
Parvani,
Parvati,
Parveen,
Patmanjari,
Patralekha,
Pavana,
Pavani,
Payal,
Payoja,
Phiroza,
Phoolan,
Pia,
Piki,
Pingala,
Pival,
Piyali,
Pooja,
Poonam,
Poorbi,
Poornima,
Poorvi,
Poushali,
Prabha,
Prabhati,
Prachi,
Pradeepta,
Pradnaya,
Pragati,
Pragya,
Pragyaparamita,
Pragyawati,
Prama,
Pramada,
Pramila,
Pramiti,
Pranati,
Prapti,
Prarthana,
Prasana,
Prashansa,
Prashanti,
Prathysha,
Pratibha,
Pratigya,
Pratima,
Pratishtha,
Preeti,
Prem,
Prema,
Premala,
Premila,
Prerana,
Preyasi,
Prita,
Pritha,
Priti,
Pritika,
Pritikana,
Pritilata,
Priya,
Priyadarshini,
Priyal,
Priyam,
Priyamvada,
Priyanka,
Priyasha,
Puja,
Pujita,
Puloma,
"Punam, Poonam",
Punarnava,
Punita,
Punthali,
Purnima,
Purva,
Purvaja,
Pushpa,
Pushpanjali,
Pushpita,
Pusti,
Putul,
Quarrtulain,
Quasar,
Raakhi,
Rabia,
Rachana,
Rachita,
Rachna,
Radha,
Radhana,
Radhani,
Radhika,
Ragini,
Rajalakshmi,
Rajani,
Rajanigandha,
Rajata,
Rajdulari,
Rajeshwari,
Rajhans,
Rajitha,
Rajivini,
Rajkumari,
Rajnandhini,
Rajshri,
Raka,
Rakhi,
Raksha,
Rama,
Ramana,
Ramani,
Rambha,
Rameshwari,
Ramila,
Ramita,
Ramya,
Rangana,
Rangitha,
Ranhitha,
Rani,
Ranita,
Ranjana,
Ranjika,
Ranjini,
Ranjita,
Ranvitha,
Ranya,
Rashi,
Rashmi,
Rashmika,
Rasika,
Rasna,
Rathika,
Rati,
Ratna,
Ratnabala,
Ratnabali,
Ratnajyouti,
Ratnalekha,
Ratnali,
Ratnamala,
Ratnangi,
Ratnaprabha,
Ratnapriya,
Ratnavali,
Raviprabha,
Rehwa,
Rekha,
Renu,
Renuka,
Resham,
Reshma,
Reshmi,
Reva,
Revati,
Riddhi,
Riju,
Rijuta,
Rishika,
Rithika,
Riti,
Ritu,
Riya,
Rohini,
Rolee,
Roma,
Roshan,
Roshni,
Rubaina,
Ruchi,
Ruchira,
Ruchitha,
Rudrani,
Rudrapriya,
Ruhika,
Rujula,
Rujuta,
Rukma,
Rukmini,
Ruksana,
Ruma,
Rupa,
Rupali,
Rupashi,
Rupashri,
Sabita,
Sachi,Sachi
Sachika,
Sachita,
Sadaf,
Sadgati,
Sadguna,
Sadhan,
Sadhana,
Sadhika,
Sadhri,
Sadhvi,
Sadhya,
Sadiqua,
Saeeda,
Safia,
Sagari,
Sagarika ,
Saguna,
Sahana,
Saheli,
Sahiba,
Sahila,
Sahitha,
Sai,
Sajala,
Sajili,
Sajni,
Sakhi,
Sakina,
Salena,
Salila,
Salima,
Salma,
Samata,
Sameena,
Samhita,
Samidha,
Samika,
Samiksha,
Samit,
Samita,
Sammathi,
Sampada,
Sampatti,
Sampriti,
Samrithi,
Sana,
Sananda,
Sanchali,
Sanchaya,
Sanchita,
Sandhaya,
Sandhya,
Sangita,
Sanika,
Sanithi,
Saniya,
Sanjana,Sanjana
Sanjivani,
Sanjukta,
Sanjula,
Sanjushree,
Sankari,
Sankul,
Sannidhi,
Sanskriti,
Santawana,
Santayani,
Sanvali,
Sanwari,
Sanyakta,
Sanyukta,
Saparna,
Saphala,
Sapna,
Sarada,
Sarakshi,
Sarala,
Sarama,
Sarani,
Saranya,
Sarasa,
Sarasi,
Sarasvati,
Saraswati,
Saravati,
Sarayu,
Sarbani,
Sarika,
Sarit,
Sarita,
Sarjana,
Saroj,
Saroja,
Sarojini,
Saruprani,
Sarvari,
Sarvika,
Saryu,
Sashi,
Sasmita,
Sati,
Satya,
Satyarupa,
Satyavati,
Saudamini,
Saujanya,
Saumya,
Savarna,
Savita,
Savitashri,
Savitri,
Sawini,
Sayeeda ,
Seema,
Seemanti,
Seemantini,
Seerat,
Sejal,
Selma,
Semanti,
Serena,
Sevati,
Sevita,
Shabab,
Shabalini,
Shabana,
Shabari,
Shabnum,
Shachi,Shachi
Shagufta,
Shaheena,
Shaila,
Shailaja,
Shaili,
Shakambari,
Shakeel,
Shakeela,
Shakti,Shakti
Shakuntala,
Shalaka,
Shalin,
Shalini,
Shalmali,
Shama,
Shambhavi,
Shameena,
Shamim,
Shamita,
Shampa,
Shankari,
Shankhamala,
Shanta,
Shantala,
Shanti,
Sharada,
Sharadini,
Sharanya,
Sharika,
Sharmila,
Sharmistha,
Sharvani,
Sharvari,
Shashi,
Shashibala,
Shashirekha,
Shaswati,
Shatarupa,
Sheela,
Sheetal,Sheetal
Shefali,
Shefalika,
Shejali,
Shekhar,
Shevanti,
Shibani,
Shikha,
Shilavati,
Shilpa,Shilpa
Shilpita,
Shinjini,
Shipra,
Shirin,
Shishirkana,
Shiuli,
Shivangi,Shivangi
Shivani,
Shivanne,
Shobha,
Shobhana,
Shobhita,
Shobhna,
Shorashi,
Shraddha,
Shradhdha,
"Shravana, Shrabana",
Shravani,
Shravanti,
Shravasti,
Shree,
Shreela,
Shreemayi,
Shreeparna,
Shrestha,
Shreya,Shreya
Shreyashi,
Shri,
Shridevi,
Shridula,
Shrigauri,
Shrigeeta,
Shrijani,
Shrikirti,
Shrikumari,
Shrilata,
Shrilekha,
Shrimati,
Shrimayi,
Shrivalli,
Shruti,Shruti
Shubha,Shubha
Shraddha,Shraddha
Shubhangi,
Shubhra,
Shuchismita,
Shuchita,
Shukla,
Shukti,
Shulka,
Shweta,Shweta
Shyama,
Shyamal,
Shyamala,
Shyamali,
Shyamalika,
Shyamalima,
Shyamangi,
Shyamari,
Shyamasri,
Shyamlata,
Shyla,
Sibani,
Siddheshwari,
Siddhi,
Siddhima,
Sikata,
Sikta,
"Simran, Smaram",
"Simrit, Smrita",
Sindhu,
Sinsapa,
Sita,
Sitara,
SivaSankari,
Siya,
Smita,
Smriti,
Sneh,
Sneha,Sneha
Snehal,
Snehalata,
Snigdha,
Sohalia,
Sohana,
Sohni,
Soma,
Somalakshmi,
Somansh,
Somatra,
Sona,
Sonakshi,
Sonal,
Sonali,
Sonam,
Sonia,
Sonika,
Soorat,
Soumya,Soumya
Sourabhi,
Sphatika,
Sragvi ,
Sristi,
Sriya,
Stavita,
Stuti,
Subarna,
Subhadra,
Subhaga,
Subhagya,
Subhashini,
Subhuja,
Subrata,
Suchandra,
Sucharita,
Sucheta,
Suchi,
Suchira,
Suchita,
Suchitra,
Sudakshima,
Sudarshana,
Sudeepa,
Sudeepta,
Sudeshna,
Sudevi,
Sudha,
Sudhamayi,
Sudhira,
Sudhithi,
Sudipta,
Sudipti,
Sugita,
Sugouri,
Suhag,
Suhaila,
Suhasini,
Suhela,
Suhina,
Suhitha,
Suhrita,
Sujala,
Sujata,
Sujaya,
Sukanya,
Sukeshi,
Sukriti,
Suksma,
Sukthi,
Sukumari,
Sulabha,
Sulakshana,
Sulalita,
Sulekh,
Suloch,
Sulochana,
Sultana,
Sumana,
Sumanolata,
Sumati,
Sumedha,
Sumita,
Sumitra,
Sunanda,
Sunandini,
Sunandita,
Sunaya,
Sunayana,
Sunayani,
Sundari,
Sundha,
Suneeti,
Sunetra,
Sunila,
Sunita,
Suniti,
Suparna,
Suprabha,
Supriti,
Supriya,
Surabhi,
Suraksha,
Surama,
Suranjana,
Suravinda,
Surekha,
Surina,
Surotama,
Suruchi,
Surupa,
Surya,
Suryakanti,
Sushama,
Sushanti,
Sushila,
Sushma,Sushma
Sushmita,
Sushobhana,
Susita,
Susmita,
Sutanuka,
Sutapa,
Suvarna,
Suvarnaprabha,
Suvarnarekha,
Suvarnmala,
Swagata,
Swaha,
Swapna,
Swapnali,
Swapnasundari,
Swarnalata,
Swarupa,
Swasti,
Swati,Swati
Sweta,
Swetha,
Tabassum,
Talikha,
Tamali,
Tamalika,
Tamanna,
Tamasa,
Tamasi,
Tambura,
Tanaya,
Tanika,
Tanima,
Tanmaya,
Tannishtha,
Tanseem,
Tanu,
Tanuja,
Tanuka,
Tanushri,
Tanvi,
Tapani,
Tapasi,
Tapati,
Tapi,
Tapti,
Tara,
Taraka,
Tarakeshwari,
Tarakini,
Tarala,
Tarana,
Tarangini,
Tarannum,
Tarika,
Tarini,
Tarjani,
Taru,
Tarulata,
Taruni,
Tarunika,
Tarunima,
Tatini,
Teertha,
Teesta,
Tehzeeb,
Teja,
Tejal,
Tejashree,
Tejaswi,
Tejaswini,
Thamarai,
ThamilSelvi,
ThenMoli,
Thenral,
Thulasi,
Thumri,
Tilaka,
Tilottama,
Timila,
Titiksha,
Toral,
Treya,
Tridhara,
Triguna,
Triguni,
Trikaya,
Trilochana,
Trinayani,
Trinetra,
Triparna,
Tripta,
Tripti,
Tripurasundari,
Tripuri,
Trisha,
Trishala,
Trishna,
Triveni,
Triya,
Triyama,
Trupti,
Trusha,
Tuhina,
Tulasi,
Tulika,
Tusharkana,
Tusti,
Tvarika,
Tvesa,
Udaya,
Udita,
Uditi,
Ujas,
Ujjanini,
Ujjwala,
"Ujwala, Ujjala",
Ulka,
Ulupi,
Uma,
Umika,
Umrao,
Unnati,
Upala,
Upama,
Upasana,
Ura,
Urja,
Urmi,
Urmila,
"Urmila, Urmil",
Urmimala,
Urna,
Urshita,
Urvashi,
Urvasi,
Urvi,
Usha,
Ushakiran,
Ushashi,
Ushma,
Usri,
Uthami,
Utpala,
Utpalini,
Utsa,
Uttara,
Vagdevi,
Vahini,
Vaidehi,
Vaijayanti,
Vaijayantimala,
Vaishali,
"Vaishavi, Vaishnodevi",
Vajra,
Vallari,
Valli,
Vallika,
Vama,
Vanadurga,
Vanaja,
Vanamala,
Vanani,
Vanathi,
Vanca,
Vandana,
Vanhi,
Vanhishikha,
Vani,
Vanita,
Vanmala,
Vanshika,
Varada,
Varana,
Vari,
Varija,
Varsha,
Varuna,
Varuni,
Vasanta,
Vasanti,
Vasavi,
Vasudha,
Vasudhara,
Vasumati,
Vasundhara,
Vatsala,
Vedi,
Vedika,
Vedvalli,
Veena,
Veenapani,
VeeraSundari,
Vela,
Vennela,
Vetravati,
Vibha,
Vibhavari,
Vibhuti,
Vidhut,
Vidula,
Vidya,
Vidyul,
Vidyut,
Vijaya,
Vijayalakshmi,
Vijeta,
Vijul,
Vilasini,
Vilina,
Vimala,
Vinanti,
Vinata,
Vinaya,
Vindhya,
Vineeta,
Vinita,
"Vinoda, Vinodini",
Vinodini,
Vinutha,
Vipasa,
Vipula,
Virata,
Visala,
Vishakha,
Vishala,
Vishalakshi,
Vishaya,
Vishnumaya,
Vishnupriya,
Viveka,
Vrajabala,
Vrinda,
Vritti,
Vyanjana,
Vyjayanti,
Waheeda,
Wamika,
Wamil,
Yaalini,
Yaalisai,
Yajna,
Yamini,
Yamuna,
Yamya,
Yashawanthi ,
Yashawini,
Yashila,
Yashoda,
Yogini,
Yogita,
Yosana,
Yuktha,
Yuthika,
Yuvika,
