5732;BHIPK4502R;SRI MURUGAN AGENCIES;309806211000005;VIJ-UDUMALPET;NO 9/1, ASATH STREET,;UDUMALPET;TIRUPUR,TAMILNADU    ;TAMIL NADU;30980;642126;9994037999
5651;ABYPN0988K;SHREE GANAPATI CLOTH CENTRE;100200300000095;VIJ-ALDUR KARNATAKA;ALDUR;ALDUR;ALDUR,KARNATAKA      ;KARNATAKA ;10020;577111;9449206683
5999;AABFV8569Q;VIJAYALAKASHMI;103800300000005;VIJ-BRIGADE ROAD BANGALORE;20. J/61,M.G.ROAD;M.G.ROAD;BANGALORE  ;KARNATAKA ;10380;560001;9845165037
7011;CNIPS7979D;SRI DURGA CATERERS;103807751000001;VIJ-BRIGADE ROAD BANGALORE;# 12 GRD FLR ,SAPTHAGIRI NILAYA,1ST CROSS,;MUNIYELLAPPA GARDEN,OLD AIRPORT ROAD;BANGALORE  ;KARNATAKA ;10380;560008;9945935139
5251;DWMPS5514F;MATHAJI  HARDWARE;104000301000142;VIJ-BYATARAYANAPURA BANGALORE;# 02  CHETHAN COMPLEX;JAKKUR MAIN ROAD AMRUTHAHALLI;BANGALORE  ;KARNATAKA ;10400;560092;9632768271
5813;ACOPV3064H;CHITHRA BAR AND RESTAURANT.;105400300001416;VIJ-DASARAHALLI BANGALORE;8TH MAIL H.GATTA RD  DASARAHALLI;BANGALORE;BANGALORE  ;KARNATAKA ;10540;560057;9448012514
7622;AACAK7718G;KSRTC EMPLOYEES CR CO-OP SOCIETY LT;105500300001583;VIJ-DAVANGERE KARNATAKA;DAVANGERE-DIVICION  DAVANGERE;DAVANAGERE;DAVANGERE,KARNATAKA  ;KARNATAKA ;10550;577001;8867544035
5311;ARSPJ0828J;PARAM ELECTRICALS & APPLIANCES;106000301000071;VIJ-DODDABALLAPUR KARNATAKA;PROP:CHANDRA BAI;MAIN ROAD OPP VIJAYA DENTAL CLINIC DODDABALLA;DODDABALLAPUR,KARNATAKA        ;KARNATAKA ;10600;561203;9886222068
5311;ABEFM8623N;MAHAA NIDHI RETAIL AND MORE;106106041000002;VIJ-DOMLUR BANGALORE;NO.590 AECS MAIN ROAD;BROOKEFIELDS KUNDALAHALLI;BANGALORE  ;KARNATAKA ;10610;560037;7899672623
5999;ALVPM8820A; MALAKSHMI HARDWARES;106407951000008;VIJ-GADDEHALLA KARNATAKA;PROP: MANI M     TIN NO: 29250450100;MARUTHINAGARA, SH 88, KODAGARAHALLI, VIA SUNT;GADDEHALLA,KARNATAKA ;KARNATAKA ;10640;571237;8277728885
8299;AAAAD3074E;DAFFODILS ENGLISH SCHOOL ASSOCIATION;106600301000460;VIJ-SANJAYNAGAR BANGALORE;17,POSTAL COLONY    SANJAYNAGAR;                    BANGALORE;BANGALORE  ;KARNATAKA ;10660;560094;9886453782
5812;ABFFS0192P;KADAMBA DELUXE PARTNERS 1,A T SHETTY 2,P SEETHARAM SHETTY;107206211000001;VIJ-GULBARGA KARNATAKA;BAR  AND RESTURENT, JAWALI COPLEX;SUPER MARKET, GULBARGA;GULBARGA,KARNATAKA   ;KARNATAKA ;10720;585101;9448740326
5944;AEZPA2056F;SRI KRISHNA JEWELLARS;108000300000206;VIJ-HEBRI KARNATAKA;SRI KRISHNA JEWELLERY WORKS , MELPETE;MAIN ROAD HEBRI;HEBRI,KARNATAKA      ;KARNATAKA ;10800;576112;9448503881
5812;EOPPS9270M;HOTEL KAADINAMANE;108000301000045;VIJ-HEBRI KARNATAKA;W/O VIJAYA B SHETTY;VISHWAS KRUPA NADPAL SEETHANADI KARKALA TQ;HEBRI,KARNATAKA      ;KARNATAKA ;10800;576112;9880130826
5172;ABCDE1234;SOWMYA ENTERPRISES;108000301000047;VIJ-HEBRI KARNATAKA;SOWMYA ENTERPRISES, 72/1, BRAHMAVAR ROAD,;HEBRI;HEBRI,KARNATAKA      ;KARNATAKA ;10800;576112;9886653112
5311;AATFK9825Q;KAMADHENU SUPER MARKET;110500301000061;VIJ-KALLADKA KARNATAKA;GROUND FLOOR, PREETHI TOWER;KALLADKA,;KALLADKA,KARNATAKA   ;KARNATAKA ;11050;574222;9449024321
4789;ABCDE1234; NIRMALA MOTOR DRIVING SCHOOL UPPUNDA;110600301000050;VIJ-KAMBADAKONE KARNATAKA;PROPRIETOR  NARASIMHA;UPPUNDA,NH 66  KUNDAPURA TQ.;KAMBADAKONE,KARNATAKA;KARNATAKA ;11060;576232;9902213950
5311;ABTPD0297L;MADHUR MILAN TEXTILE SHOW ROOM;110700300000663;VIJ-KANAKAPURA KARNATAKA;R E S COMLEX, M G ROAD,;KANAKAPURA;KANAKAPURA,KARNATAKA ;KARNATAKA ;11070;562117;9743519655
5311;AESPS5473F;MAHAVEER GARMENTS;110700300000689;VIJ-KANAKAPURA KARNATAKA;MUNICIPAL COMPLEX;M G ROAD;KANAKAPURA,KARNATAKA ;KARNATAKA ;11070;562117;9844732130
5311;ABBFA1822G; AURA COLLECTION;111600301000051;VIJ-KAUP KARNATAKA;DOOR NO. 3-29/B9(1), MAHABALA MALL;KAUP MAIN ROAD;KAUP,KARNATAKA       ;KARNATAKA ;11160;574106;8050405757
5812;AIDPB6011B;BYRAPPA C  S\O (L)CHIKANNA;115900301000003;VIJ-NARASAPUR KARNATAKA;DHANAVAHALLI CHIKARASANAHALLI (P);NARASAPURA (H) KOLAR DIST;NARASAPUR,KARNATAKA  ;KARNATAKA ;11590;563133;9980303304
5944;AGUPD6488R;DHANLAKSHMI BANKERS & JEWELLERS;115900301000080;VIJ-NARASAPUR KARNATAKA;NARASAPURA MAIN ROAD;NARASAPURA, KOLAR TQ & DIST;NARASAPUR,KARNATAKA  ;KARNATAKA ;11590;563133;9448715210
5311;AFQPP9714H;LIKITH ENTERPRISES;116800301000013;VIJ-PAKSHIKERE KARNATAKA;PRP-SUNDAR CHANDRAPPA POOJARY;MIRANDA COMPLEX.KEMBRAL POST.D.K;PAKSHIKERE,KARNATAKA ;KARNATAKA ;11680;574146;8861608661
5912;DEMPS3184A;S S MEDICAL & GENARAL STORES;118200301000031;VIJ-RANGENAHALLI KARNATAKA;PROP: SAMIULLA S/O BABASAB, MUDUGODU; TARIKERE TQ. CHIKMAGALORE DIST;RANGENAHALLI,KARNATAKA         ;KARNATAKA ;11820;577144;9900937244
5732;FUFPS9826A;S S TELE LINKS;118200301000035;VIJ-RANGENAHALLI KARNATAKA;PROPRITOR:SHIVAJI RAO N,,276,MUDUGODU;TARIKERE TQ;RANGENAHALLI,KARNATAKA         ;KARNATAKA ;11820;577144;9901284120
5651;ABJPH0400P;RUHANIKA SARI PALACE;118506041000004;VIJ-SAIBARKATTA KARNATAKA;PROP:NIRANJAN HEGDE BANTARA BHAVANA;BUILDING NO:3-27(11,12) BRAMHAVARA;UDUPI      ;KARNATAKA ;11850;576210;7349110276
9211;AQGPG9667F;GRAMA PANCHAYATH NIDHI;118701010006497;VIJ-SALVADY KARNATAKA;PRES: SHANTHA, DO: SANTHOSH KUMARA;GRMAPANCHAYAT, HOMBADI MANDADI, HUNSEMAKKI;SALVADY,KARNATAKA    ;KARNATAKA ;11870;576222;9480878611
5812;BNEPS5601R;ASHIRVAD RESTURENT;119400301000285;VIJ-B H ROAD SHIMOGA;PROP:SUDHAKAR K S O/O KAMATH BUILDING;HOSAMANE 1ST CROSS SHIMOGA;SHIMOGA    ;KARNATAKA ;11940;577201;9986177200
5651;BKRPP1797H;SHEETAL NX;120006041000011;VIJ-SIRSI KARNATAKA;PROP:SURESH MANGALARAM PATEL;NO 112 GROUND FLOOR CP BAZAR SIRSI;SIRSI,KARNATAKA      ;KARNATAKA ;12000;581401;9164790361
5813;AMAPM7703N;SRINIDHI WINES  (PROP SUCHITRA ASWATHA);120107711000007;VIJ-WEST OF CHORD ROAD BLORE;#390 1ST B MAIN ROAD 1ST STAGE 3RD PHASE;WEST OF CHORD ROAD BANGALORE;BANGALORE  ;KARNATAKA ;12010;560010;9880088718
1731;ABBFS8815K;SANCHANA GURU DISTRIBUTORS;121700301000092;VIJ-VANIVILAS ROAD BANGALORE;M/S SANCHANA GURU DISTRIBUTORS,NO,15A/1;2ND CROSS LALBAGH RD SUDHAMANAGAR B,LORE;BANGALORE  ;KARNATAKA ;12170;560027;9448073200
5713;AXLPS7902B;ALANKAR TILES & SANITARYWARES;121706341000002;VIJ-VANIVILAS ROAD BANGALORE;#19, NAGAHRBHAVI RING ROAD,;YEHSWANTHPUR HOBLI, BANGALORE;BANGALORE  ;KARNATAKA ;12170;560072;9886383636
5944;BRPPP4422C;SHREE ANNAPURNESHWARI JEWELLERS;122500301000076;VIJ-HATTARGI KARNATAKA;PROP CHETAN VISHWANATH PATTAR;YAMAKANMARDI  HATTARGI  TQ HUKKERI;HATTARGI,KARNATAKA   ;KARNATAKA ;12250;591245;9916391940
5999;ARNPN8365R;K T NARAYANASWAMY S/O THIMAIHA;123306331000001;VIJ-DEVARAYASAMUDRA KARNATAKA;AGRICULTURE LABOUR. KAMADATI VILLAGE;HANUMANAHALLI POST;DEVARAYASAMUDRA,KARNATAKA      ;KARNATAKA ;12330;563127;9986162324
5651;CDFPP7260M;PAVAN ENTERPRISES;123400300000471;VIJ-HEGGADEDEVANA KOTE KARNATA;M/S PAWAN TEXTILES AND ENTERPRISES;PROP POONAM SINGH, HD KOTE T, MYSORE DI;HEGGADEDEVANA KOTE,KARNATAKA   ;KARNATAKA ;12340;571114;9448402306
5651;FGNPS3331G;MANASA FASHIONS;123400301000177;VIJ-HEGGADEDEVANA KOTE KARNATA;PROP: H R SHEKAR S/O LATE H G RAMASHETTY;GV & HS COMPLEX H B ROAD HD KOTE;HEGGADEDEVANA KOTE,KARNATAKA   ;KARNATAKA ;12340;571114;9945192301
5812;AEMPR0907F;NARTHAKI BAR  & RESTAURENT;124207950270007;VIJ-KUMBRA KARNATAKA;PROPA:M PURANDARA RAI;MITHRAMOADY HOUSE;KUMBRA,KARNATAKA     ;KARNATAKA ;12420;574258;9972380463
8099;ACWPY5437F;JIGANI MEDICALS;124500301000143;VIJ-BANNERGHATTA BANGALORE;COLIN YATES. PROP JIGANI MEDICALS;NEXT TO INDIRA HOSPITALS JIGANI;BANGALORE  ;KARNATAKA ;12450;562106;9448275632
8062;ADWPG4294K;INDIRA HOSPITAL;124500301000240;VIJ-BANNERGHATTA BANGALORE;NO 209 BEHIND  INDIRA HOSPITAL JIGANI; BANGALORE;BANGALORE  ;KARNATAKA ;12450;560105;9448275632
5533;AFAFC4511D;NANDHI CELEBRATIONS;128600301000503;VIJ-PALACE ORCHARDS BANGALORE;NO 1 (73) 27TH A CROSS 4TH BLOCK;JAYANAGAR OPP JANATHA BAZAR;BANGALORE  ;KARNATAKA ;12860;560011;9845019693
8299;AAATK7891F;KSVK SCHOOL HAGADUR;129200301000286;VIJ-WHITEFIELD BANGALORE;K.S.V.K.TRUST (REGD)IMMADIHALLI MAIN RD.;WHITEFIELD          BANGALORE;BANGALORE  ;KARNATAKA ;12920;560066;9449628992
8299;AAATK7891F;KSVK INTERNATIONAL SCHOOL ANUGONDANAHALLI;129200301000294;VIJ-WHITEFIELD BANGALORE;K.S.V.K.TRUST (REGD)IMMADIHALLI MAIN RD.;WHITEFIELD          BANGALORE;BANGALORE  ;KARNATAKA ;12920;560066;9449628992
5812;AXAPG7110N;MYSORE MYLARI;129600301000224;VIJ-KUVEMPUNAGAR;  NO 12 UDAYARAVI ROAD;KUVEMPUNAGAR MYSORE;MYSORE     ;KARNATAKA ;12960;570023;8088292152
5172;BBHPS8212H;SRI RAJ FUEL STATION,;129906211000003;VIJ-S R RASTE SHIMOGA; W/O VIJAYAKANTH.S RAJ NIVAS 3 RD CROSS; VENKATESH NAGAR A. N. K ROAD SHIMOGA;SHIMOGA    ;KARNATAKA ;12990;577201;9886277399
8099;GGBPS0075J;M/S KAUTILYA MEDI HEALTH PROP. SHANAVI K M;129906361000002;VIJ-S R RASTE SHIMOGA;W/O MITHUN CHAKRAVARTHY P H NO. 134-4,;2ND CROSS, TILAK NAGAR;SHIMOGA    ;KARNATAKA ;12990;577201;8884923011
5311;ACOPA8559Q;S K MEDICALS CHEMISTS & DRUGGISTS;132600300000412;VIJ-K R PURAM BANGALORE;#969 SUMUKHA 3RD MAIN,GOVT PU COLLGE ROAD;K R PURAM,          BANGALORE,;BANGALORE  ;KARNATAKA ;13260;560036;9880441180
5511;AIUPJ7668M;SHREE LAXMI NARASIMHA  ASSOCIATES - SUHAS I JEWOOR;132800301000153;VIJ-SARASWATPUR DHARWAR;NEAR RAYARAMATH, GOULI GALLI;MALAMADDI  DHARWAD;SARASWATPUR,DHARWAR  ;KARNATAKA ;13280;580007;7676660004
5251;DSYPS4362C;SANGEETHA HARDWARE;133300301000264;VIJ-MOODLUPALYA BANGALORE;PROP. SANGEETHA,  # 87, LAKKAPPA COMPLEX;OPP.VIJAYA BANK,MOODALAPALYA,NAGARBHAVI MN RD;BANGALORE  ;KARNATAKA ;13330;560072;9449120652
5172;AAKPV5873G;CHOWDESHWARI SERVICE STATION;133807711000003;VIJ-CHANNARAYAPATNA KARNATAKA;PROP H S VIJAYA KUMAR,;B M ROAD;CHANNARAYAPATNA,KARNATAKA      ;KARNATAKA ;13380;573116;9535123444
5451;ABCDE1234;MOUNA ENTERPRISES;133900301000152;VIJ-HUDA-HASSAN; SHOP NO.  6 TAPCMS  BUILDING  OPP:  GOWDAIAH;PETROL  BUNK  B M ROAD  HASSAN;HASSAN     ;KARNATAKA ;18280;573201;9448261567
5732;AHRPG8997N;JYOTHI ELECTRICAL & HARDWARE;134800300001608;VIJ-HAL III STAGE BANGALORE;NO 1829, 6TH CROSS   NEW THIPPASANDRA;BEML MAIN ROAD      BANGALORE-75;BANGALORE  ;KARNATAKA ;13480;560075;9844158863
5732;ABCDE1234;FITSQUAD  ENTERPRISES;134800301000468;VIJ-HAL III STAGE BANGALORE;NO 10 D  AVIGHNAA COMPLEX  3RD FLOOR;RAMAMURTHYNAGAR ROAD  DODDA BANASWADI;BANGALORE  ;KARNATAKA ;13480;560043;9901099993
5511;AHOPK6475A;LAKSHMI CABLE NETWORK;139200300000158;VIJ-S S I BANGALORE;BHAVANI ROAD HEBBAGODI,ELCTRONIC CITY,;BANGALORE 561229+;BANGALORE  ;KARNATAKA ;13920;560098;9663004356
5812;ABCDE1234;CHUNG  WAH B G;139900301000286;VIJ-BILEKAHALLI BANGALORE;# 71 DORESANILPALYA WARD 1ST MAIN;ROAD PANDURANGA NAGAR;BANGALORE  ;KARNATAKA ;13990;560076;9845255009
7298;AOMPT0720J;WAY TO STYLES MEN SALON;140000301000809;VIJ-H B R LAYOUT BANGALORE;NO 2C-801 HRBR LAYOUT 1ST BLOCK;KALYAN NAGAR;BANGALORE  ;KARNATAKA ;14000;560043;9740206246
7298;AAZPP1237D;MAHESHWARI BAR AND RESTAURANT;140000301000821;VIJ-H B R LAYOUT BANGALORE;#417, SUDARSHAN, 5TH CROSS, 2ND BLOCK;HRBR LAYOUT, KALYAN NAGAR, NEAR ADISHWARAS SH;BANGALORE  ;KARNATAKA ;14000;560043;9513366665
5950;AKGPD3435L;SHREE VEERA GLASS WORKS.;140006341000003;VIJ-H B R LAYOUT BANGALORE;NO. 3, VIDYA SAGARA ARABIC COLLEGE POST;THANISANDRA VILLAGE BANGALORE;BANGALORE  ;KARNATAKA ;14000;560045;9845618630
8299;AAATM8273B;MOUNT ZION EDUCATION & WELFARETRUST;140501011000444;VIJ-H S R LAY OUT;NO. CA8,  4TH AVENUE, TEACHERS'  COLONY;KORAMANGALA;BANGALORE  ;KARNATAKA ;14050;560034;9448355255
5311;AWFPS5420B;PAVAN BHANDAR;141300301000273;VIJ-BHOGADI BRANCH;#201/1H,2ND STAGE,NEAR VIJAYA BANK;BHOGADI ,MYSORE;MYSORE     ;KARNATAKA ;14130;570026;7204885508
5311;CVAPK6833N;LAKSHMI PROVISION STORE;141300301000338;VIJ-BHOGADI BRANCH;PROP:- KALYAN SINGH  NO1549   E-BLOCK;SAHUKARCHENNAIAH ROAD JANATHA NAGAR MYSORE;MYSORE     ;KARNATAKA ;14130;570026;9902940177
5999;ARRPK1628A;SREE LAKSHMI GLASS & PLYWOODS;141600301000086;VIJ-R.T.NAGAR -BR-BANGALOR;NO.88,4TH CROSS,ADARSHANAGAR,R.T.NAGAR;BANGALORE;BANGALORE  ;KARNATAKA ;14160;560032;9663697979
7011;AKHPA9484D;YAMUNA VIHAR;142800301000047;VIJ-KOLLUR, KARNATAKA.;YAMUNA VIHAR  D NO 1-145  NEAR POLICE STATION;SHIMOGA ROAD  KOLLUR;KOLLUR, KARNATAKA;KARNATAKA ;14280;576220;7022175973
7011;AAFCD6977M;DEEYA SUITES PRIVATE LIMITED;143100301000282;VIJ-VARTHUR;NO 36 S-207 PIPELINE RD RAGHAVENDRA COLONY;BEHIND RNS MOTORS BANGALORE;BANGALORE  ;KARNATAKA ;14310;560022;9880640505
8062;AAVFM1770C;M R R HOSPITAL;144000301000055;VIJ-SOLUR-B M ROAD;SOLUR, BANGALORE MANGALORE HIGHWAY;MAGADI TALUK;RAMANAGARAM,KARNATAKA;KARNATAKA ;14400;562127;9845520931
5812;AFQPN4328H;BHAVYA WINE STORE;144100301000122;VIJ-KENGERI BANGALORE;PROP: BHAVYA WINES, NO.199/15;ULLAL UPANAGAR MAIN ROAD;BANGALORE  ;KARNATAKA ;14430;560056;9342154901
5651;BVXPD4566R;BHAVANI FASHION;144600301000355;VIJ-CHANDAPURA BR - BANGALORE;DOMMASANDRA VILLAGE MUTHANALLUR CROSS;SARJAPURA HOBLI  ANEKAL BANGALORE;BANGALORE  ;KARNATAKA ;14460;560099;8095406142
5732;ABCDE1234; COMFORT LINK;144800301000142;VIJ-MARATHAHALLI;NO11, 1ST CROSS BEHIND ESHWAR; TEMPLE MARATHAHALLI POST;BANGALORE  ;KARNATAKA ;14480;560037;9900231028
5511;ABCDE1234; AMOOLYA HP GAS AGENCY;145907951000009;VIJ-UPPINANGADY;4-159(1);SOORYAMBAILU COMPLEX;UPPINANGADY;KARNATAKA ;14590;574201;9980739920
7298;ADKPV9315Q;CRYSTALS SPAA;148900301000138;VIJ-KODIGEHLLI,BANGALORE;#31,32,33 BASEMENT INSIDE RIO THE HOTEL;E-BLOCK 14TH MAIN 2ND CROSS SAHAKARANAGAR BAN;BANGALORE  ;KARNATAKA ;14890;560092;9845335910
5944;AIWPB1683N;SRI MANJUNATHA JEWELLERS;148900301000146;VIJ-KODIGEHLLI,BANGALORE;1651/2 B BLOCK SAHAKARANAGARA BANGALORE;KARNATAKA;BANGALORE  ;KARNATAKA ;14890;560092;9036798779
5311;BJHPR7031M;AGROSHOP;151200301000007;VIJ-BILUGOLA;V C RAJESH PROPRIETOR AGROSHOP GAJENDRA;BUILDING NR CORT K M ROAD HESGAL MUDIGERE;MUDIGERE,KARNATAKA   ;KARNATAKA ;15120;577132;9481476992
5511;AEXPL0631D;SRI BHYRAVESWARA TRADERS;152200301000013;VIJ-MALLNAKUPPE;PROP:LINGARAJU H.G,ARAMANE HONNAMACHANAHALLI;HULIYUR DURGA, TUMKUR DIST.;MALLNAKUPPE,KARNATAKA;KARNATAKA ;15220;572123;8184098075
5999;AMOPM6197L;SREE LAKSHMIVENKTESWARA STEEL & CEMENTS;154600301000028;VIJ-ELECTRONIC CITY GENNXT;NO 59/1 ANJANAPPA COMPLEX OPP ST XAVIER;SCHOOL BETTADASAPURA E - CITY BLR;BANGALORE  ;KARNATAKA ;15460;560068;9972763306
5533;HIQPS2132Q;CHOWDESHWARI CATERERS;154600301000152;VIJ-ELECTRONIC CITY GENNXT;PROP.NAGESH SHETTY SHANKARAPPA BUILDING;HULIMANGALA(V) JIGANI HO BANGALORE;BANGALORE  ;KARNATAKA ;15460;560105;9945509272
5712;ASLPK1308C;KING FURNITURE & HANDLOOM WORLD;154600301000157;VIJ-ELECTRONIC CITY GENNXT;PROP. AMIT KUMAR FLOT NO 209 2ND FLOOR SANTH;#NAME?;BANGALORE  ;KARNATAKA ;15460;560067;9215540821
7298;BAWPR1705G;RAMANJANEYULU;155900301000037;VIJ-YELAHANKA OLD TOWN;#991 OLD MIDDLE SCHOOL ROAD;YELAHANKA OLD TOWN;BANGALORE  ;KARNATAKA ;15590;560064;9035224954
5651;ABCDE1234;ROSHINI FASHIONS;155900301000038;VIJ-YELAHANKA OLD TOWN;#113 20TH CROSS 1ST MAIN;MARUTHINAGAR YELAHANKA;BANGALORE  ;KARNATAKA ;15590;560064;8197693975
5944;AQDPM5533F;MARUTHI BANKERS JEWELLERS;156600301000114;VIJ-KATHRIGUPPE;#10/1 2ND B CROSS;KATHRIGUPPE MAIN ROAD BSK 3RD STAGE;BANGALORE  ;KARNATAKA ;15660;560085;9845748349
5813;AAQFB5742E;FOR BLUE DIAMOND HOSPITALITY;157000301000040;VIJ-BANGALORE-RBI LAYOUT;NO 121,RBI LAYOUT,KOTHANNUR DINNE ROAD;J P NAGAR 7TH PHASE;BANGALORE  ;KARNATAKA ;15700;560078;9900125318
7298;BGFPB3498F;NATURAL AND HEALTH RCM BAZAR;157600301000061;VIJ-CHNADRA LAYOUT BRANCH;NO0, GROUND FLOOR, 1ST CROSS, MARUTHI NAGAR;CHANDRA LAYOUT;BANGALORE  ;KARNATAKA ;15760;560040;9008302995
5651;FQDPS3022Q;SRI LAXMI ENTERPRISE;157600301000084;VIJ-CHNADRA LAYOUT BRANCH;#28, 1ST MAIN, 6TH CROSS MARUTHI NAGAR;NAGARABHAVI MAIN ROAD;BANGALORE  ;KARNATAKA ;15760;560072;9743497999
5499;AUWPV7999P;VARSHINI  AGENCIES {PROP} VARSHA;181000301000550;VIJ-VIJ - BASAVESHWARNAGAR -BL;6/9  NEW 6/4A  2NR FLOOR 2ND MAIN 3RD CROSS;GOVINDARAJ NAGAR VIJAYANAGAR;BANGALORE  ;KARNATAKA ;18100;560040;8431118855
5139;DDTPS9596G;SHRI SAI FOOT WEAR;181006211000080;VIJ-VIJ - BASAVESHWARNAGAR -BL;#116/MIG KHB COLONY 2ND STAGE 80FEET ROAD;BASAVESHWARA NAGAR BANGALORE;BANGALORE  ;KARNATAKA ;18100;560079;8053307076
5732;AABFZ3778K;ZYGONET;201306211000028;VIJ-KALPETTA KERALA;MANAGING PARTNER, SHANOOB P K,;TRIDENT ARCADE, PINANGODE ROAD,KALPETTA;KALPETTA,KERALA      ;KERALA ;20130;673121;8139010201
5065;AAOFA6578R;AMANA ELETRICALS;202000300000460;VIJ-KONDOTTY KERALA;BY-PASS ROAD;KONDOTTY;KONDOTTY,KERALA;KERALA ;20200;673638;9947809292
7230;EGFPS7244F;AMBILY'S FRIENDLY BEAUTY WORLD;203206211000019;VIJ-KOLLAM KERALA;NEAR VALLIKEEZHU TEMPLE;KAVANAD P O;KOLLAM,KERALA        ;KERALA ;20320;691003;7012779422
5311;AHWPT1077D;NABRAS HYPER MARKET;203500301000084;VIJ-TALIPARAMBA KERALA;NABRAS HYPER MARKET, XX 618-625,;MARMAR ARCADE, NH TALIPARAMBA;TALIPARAMBA,KERALA   ;KERALA ;20350;670141;9544222244
5812;ABCDE1234;NEW ROYAL BAKERS AND RESTAURANT;204000301000187;VIJ-TRIPUNITHURA KERALA;DOOR NO.40/510, GROUND FLOOR;NEAR MALABAR GOLD, MG ROAD;ERNAKULAM  ;KERALA ;20400;682301;9895722138
5137;CKEPP5785K;TRY 'N' BUY DRESS SHOP;204000301000192;VIJ-TRIPUNITHURA KERALA;TMC/XXVI/429 A & B ,OPP.MEMANA ROAD;CHOORAKAD , TRIPUNITHURA;TRIPUNITHURA,KERALA  ;KERALA ;20400;682301;8891952875
5651;AYBPJ7687H;MENS WORLD;204006211000051;VIJ-TRIPUNITHURA KERALA;20/296 A   OPP ST. MARY'S YACOBITE CHURCH;MAIN ROAD;TRIPUNITHURA,KERALA  ;KERALA ;20400;682301;9349978135
7221;EMRPK4193R;INA TOURISM AND TRAVELS AND PHOTOGRAPHY;204500301000076;VIJ-MEPPADI KERALA;PROPRIETOR : SANJID LAL  DOR NO 7/408;KALATHIL THODI MOOPAINAD MEPPADI;MEPPADI,KERALA       ;KERALA ;20450;673577;9961081889
4900;AZKPS3780N;GOURY INDANE SERVICES;206906041000013;VIJ-ALUVA  ERNAKULAM;SANJO COMPLEX ANNEX, VIII/609---G;CHUNANGHAM VELI,ERUMATHALA  PO;ERNAKULAM  ;KERALA ;20690;683105;9447767018
5947;ABCDE1234;RAMADAS K;208501241000004;VIJ- KARINKALLATHANI;PUYLIYATH;CHTHALLUR;THACHANATTUKARA-I;KERALA ;20850;678583;9847554260
8299;AABTA0123D;ADI SHANKARA INSTITUTE OF ENGINEERING AND TECHNOLOGY;209200301000008;VIJ-MATTOOR;VIDYA BHARATHI NAGAR,  MATTOOR;KALADY;ERNAKULAM  ;KERALA ;21170;683574;9539010657
5812;ABCDE1234;AMMUS KITCHEN;211100301000023;VIJ-ETTUMANOOR,KERALA;X11/299-1,101 KAVALA;OPP SULABHA MARKET ATHIRAMPUZHA P O;KOTTAYAM,KERALA      ;KERALA ;21110;686562;8111810832
7631;AJFPG6962R;SWAYAMVARAM GOLD;212100301000014;PALAZHI KERALA;P.O.G.A.COLLEGE;PALAZHI, PALA;CALICUT    ;KERALA ;21210;673014;8547967383
5697;ABCDE1234;NEW FASHIONN;300100301000034;VIJ-ADYAR CHENNAI;NO-28,SHOP NO 2 , L B ROAD;ADYAR;CHENNAI    ;TAMIL NADU;30010;600020;9566082866
8099;FZZPS7189K;GUNA PHARMACY;300100301000308;VIJ-ADYAR CHENNAI;NEW NO 13 OLD NO 10 PALLIPATTU MAIN ROAD;THARAMANI;CHENNAI    ;TAMIL NADU;30010;600113;9840412361
5651;AGMPA0961A;SUNSHINE TAILOR;300100301000310;VIJ-ADYAR CHENNAI;NO 2 SARDAR PATAL ROAD;GOKUL COMPLEX ADYAR;CHENNAI    ;TAMIL NADU;30010;600020;7010904110
5511;AEYPM6304F;MAHENDR AUTO AGENCIES;300400300001796;VIJ-NANJAPPA ROAD COIMBATORE;56/9,ISWARTRADE CENTRE,GREY TOWN;                    COIMBATORE;COIMBATORE ;TAMIL NADU;30040;641018;9443823405
5311;AELPA4059C;PRIYA TRADING;300400301000838;VIJ-NANJAPPA ROAD COIMBATORE;NO 66 M. K .PALAYAM ROAD;PEELAMEDU;COIMBATORE ;TAMIL NADU;30040;641004;9487533658
5655;ABCDE1234;AK SPORTS;300400301000907;VIJ-NANJAPPA ROAD COIMBATORE;143, BHARATHIYAR ROAD,;PAPPANAIKKENPALAYAM,;COIMBATORE ;TAMIL NADU;30040;641018;9487337037
5511;AAIFM3908M;MANKU STORES;300407711000018;VIJ-NANJAPPA ROAD COIMBATORE;137-D,JAIL ROAD;                    COIMBATORE;COIMBATORE ;TAMIL NADU;30040;641018;9943067689
5533;ABCDE1234;RAMESH & CO;300600300000414;VIJ-KOTAGIRI TAMILNADU;HRM BUILDING,;KOTAGIRI;KOTAGIRI,TAMILNADU   ;TAMIL NADU;30060;643217;9443031246
4900;ACRPJ0201B;LAKSHMI GAS SERVICE;300600300000533;VIJ-KOTAGIRI TAMILNADU;17/77 DONNINGTON ROAD;METTUPALAYAM ROAD;KOTAGIRI,TAMILNADU   ;TAMIL NADU;30060;643217;9443054278
5462;ACFPR4025B;RAGAVAN.A;300601010007121;VIJ-KOTAGIRI TAMILNADU;S/O KELAPPA N.NO:39/92A,N.NO:2/315, KAMBAI;KADAI, KOTAGIRI PO, THE NILGIRIS DT, TAMIL NA;KOTAGIRI,TAMILNADU   ;TAMIL NADU;30060;643217;4266271985
7394;ACTPC1510E;PERIYANDAVAR TOOLS MART;300700301000008;VIJ-MADURAI TAMILNADU;44 A TAMIL SANGAM ROAD;NULL;MADURAI,TAMILNADU    ;TAMIL NADU;30070;625001;9894305489
8071;AFGPT4996R;DEVA THARSHINI PHARMA CENTRE;300706211000019;VIJ-MADURAI TAMILNADU;(NORTH MARRAT STREET )MANNAR THIRUMALAI SALAI;216 1ST FLOOR NAICKER NEW STREET;MADURAI,TAMILNADU    ;TAMIL NADU;30070;625001;9842593114
5499;AKYPS0989E;HOT OVEN;300907951000006;VIJ-UDHAGAMANDALAM TAMILNADU;HOTEL DURGA BUILDING;ETTINES ROAD;UDHAGAMANDALAM,TAMILNADU       ;TAMIL NADU;30090;643001;9443005874
5944;BICPK5139F;CHINNANNAAN JEWELLERY;301100301000157;VIJ-POLLACHI TAMILNADU;RPOP: C KARTHIKEYAN;157 , BAZAAR STREET;POLLACHI,TAMILNADU   ;TAMIL NADU;30110;642002;9842299114
8062;ARVPP5574G;PRIYA MEDICAL;301400521000001;VIJ-TIRUCHIRAPALLI TAMILNADU;10A, SRINAGAR, THIRUVANAIKOVIL;CHENNAI TRUNK ROAD;TIRUCHIRAPALLI,TAMILNADU       ;TAMIL NADU;30140;620005;7598451081
5699;ABCPU9755D;QUALITY BURKHA HOUSE;301500301000719;VIJ-TRIPLICANE CHENNAI;176 TRIPLCANE HIGH RD OPP POST OFFICE;CHENNAI;CHENNAI    ;TAMIL NADU;30150;600005;8056007048
8099;AAJPJ4010C;JAGATHEESAN T DR;301500301000731;VIJ-TRIPLICANE CHENNAI;52,KHANABAGH STREET;TRIPLICANE          CHENNAI;CHENNAI    ;TAMIL NADU;30150;600005;9840768792
5713;AADFV8704H;V.T.S. WALLS & FLOORS;301706041000001;VIJ-T NAGAR CHENNAI;NO. 14/1 LOGANATHAN NAGAR, IIIRD STREET,;CHOOLAIMEDU, CHENNAI-94;CHENNAI    ;TAMIL NADU;30170;600094;9094233344
5533;AAVPS8595D;TIC TAC RESTAURANT;301707751000001;VIJ-T NAGAR CHENNAI;NO:19,THIRUMOORTY NAGAR MAIN ROAD;NUNGAMBAKKAM;CHENNAI    ;TAMIL NADU;30170;600034;9840026466
763;ACNPM2852L;KUMARAN  VIVASAYA STORE;302706021000001;VIJ-DINDIGUL TAMILNADU;82,THADICOMBU ROAD;DINDIGUL;DINDIGUL,TAMILNADU   ;TAMIL NADU;30270;624001;9842122127
8062;AALFR3989C;RAJ HOSPITAL;302806211000018;VIJ-THANJAVUR TAMILNADU;A/C OPERATION- DR.M.RAJ KUMAR;10,BALAKRISHNA NAGAR,MANNARGUDI-614001;THANJAVUR,TAMILNADU  ;TAMIL NADU;30280;614001;9443127511
5732;BGEPS9192Q;SRI ANDAL TRADERS(PROP-SOUNDARAJAN);302907711000017;VIJ-TIRUNELVELLI TAMILNADU;30 S.N HIGH ROAD;TIRUNELVELI;TIRUNELVELLI,TAMILNADU         ;TAMIL NADU;30290;627001;9443357525
5732;ACTPV1762D;JAI RAMDEV DISTRIBUTORS (PROP);303006211000032;VIJ-ERODE TAMILNADU;PROP. R. JABARNATH  580/5,CAUVERY COMPLE;NETHAJI ROAD        ERODE 1;ERODE,TAMILNADU      ;TAMIL NADU;30300;638001;9443414151
5511;AADFP1323Q;PALANIKUMAR AUTO STORES;303006211000061;VIJ-ERODE TAMILNADU;1272/73 METTUR ROAD;METTUR ROAD;ERODE,TAMILNADU      ;TAMIL NADU;30300;638011;9443366991
5311;AARFR0585L;RAJATHI SHOES;303100301000261;VIJ-CUDDALORE TAMILNADU;22, BHARATHI ROAD;( OPP NEW CINEMA );CUDDALORE,TAMILNADU  ;TAMIL NADU;30310;607001;9443223488
8299;AMIPP1267G;LORD PADMAVATHI EDUCATIONAL COUNSEL & CONSULTANCY;303500301000321;VIJ-VENKATRAYAN ROAD CHENNAI;NO-1,FLAT-11,GREEN PALACE,;SOUTH DANDAPANI STREET,T NAGAR;CHENNAI    ;TAMIL NADU;30350;600017;9841043943
5699;AAOFG9167E;GREAT AND GREAT GARMENTS;303800301001107;VIJ-TIRUPUR TAMILNADU;NO 464/1D,MOOGAMBIGAI COLONY EXTN,;SIRUPOOLUVAPATTI PO,TIRUPUR;TIRUPUR,TAMILNADU    ;TAMIL NADU;30380;641603;9361179911
5949;ALTPA7461R;DECCAN ALUMINIUM BY PROP O AHAMED SALEEM;303900301000104;VIJ-KOLATHUR CHENNAI;SHOP NO 1 S/1 1ST MAIN ROAD SELVINAGAR;KOLATHUR;CHENNAI    ;TAMIL NADU;30390;600099;9444697006
5651;AZBPC8979N;SMART DRESS MAKER;303900301000621;VIJ-KOLATHUR CHENNAI;118, 1ST STREET, BABANAGAR;VILIVAKKAM, CHENNAI-49;CHENNAI    ;TAMIL NADU;30390;600049;9940037038
8099;AIXPB2793E;BHAASKARAN GO;303906331000006;VIJ-KOLATHUR CHENNAI;PLOT NO.291-B, MAIN ROAD, ISHWARYAMNAGAR;KONIMEDU, REDHILLS, CHENNAI;CHENNAI    ;TAMIL NADU;30390;600052;9092777847
5311;AAMFK1945Q;KUMARAN PAZHAMUDIR NILAYAM;304100301000382;VIJ-S M E COIMBATORE;99 AVINASHI ROAD, OPP POWER HOUSE;NAVAINDIA COIMBATORE;COIMBATORE ;TAMIL NADU;30410;641004;8754082625
5732;AAGFB1333H;BONTECH COMPUTERS;304106211000088;VIJ-S M E COIMBATORE;NO.110, AVINASHI ROAD, HOPE COLLEGE,;COIMBATORE - 641004;COIMBATORE ;TAMIL NADU;30410;641004;9842206599
5732;AAGCB5200L;BONCART RETAIL SERVICE PRIVATE LIMITED;304106211000179;VIJ-S M E COIMBATORE;NO 109 AVINASHI ROAD, HOPE COLLEGE;COIMBATORE;COIMBATORE ;TAMIL NADU;30410;641004;9842206599
5999;AESPG1871M;VIJAYALAKSHMI STORE;304700301000143;VIJ-ANNANAGAR MADURAI;J-157,VELAN VILAI PORUL VANIGA VALAGAM;MATTUTHAVANI;MADURAI,TAMILNADU    ;TAMIL NADU;30470;625007;9842324680
8062;AMJPR7602Q;VALE SPECIALTY ORTHO CLINIC;304700301000272;VIJ-ANNANAGAR MADURAI;DOOR NO 45, COLLECTOR OFFICE ROAD,OPP:HOTEL;STAR RESIDENCY, ANNA BUS STAND, MADURAI-20;MADURAI,TAMILNADU    ;TAMIL NADU;30470;625020;9894132597
5311;AGOPD3470H;SRI CHANTHIRAN STORE;306507711000001;VIJ-MAYILADUTHURAI;NO.111, PATTAMANGALAM  STREET;MAYILADUTHURAI;MAYILADUTHURAI;TAMIL NADU;30650;609001;9842030606
5311;AGGPL9553M;SRI MURUGAN STORES;307000301000112;VIJ-NAGAPAATINAM;GENERAL MERCHANTS,MARUNDUKADAI LANE,;NAGAPATTINAM;NAGAPATTINAM;TAMIL NADU;30700;611001;9698665572
5251;BSQPS8860K;UMA COMMUNICATIONS;307000551000001;VIJ-NAGAPAATINAM;NO:6, HDFC BANK BUILDING,;NEELA SOUTH STREET,  NAGAPATTINAM;NAGAPATTINAM;TAMIL NADU;30700;611001;9843607714
5655;ADFPN7587H;SUN SHINE FOOT WEAR;307100301000157;VIJ-ADAMBAKKAM;PROP:NIYAS:NO1/2,SHOP NO:7,SECRETARIAT COLONY;CITY LINK ROAD, N.G.O. COLONY, ADAMBAKKAM;CHENNAI    ;TAMIL NADU;30710;600088;9841036621
5311;BMDPP0487L;SKIT SRI GANESH STORES;307200541000001;VIJ-CHINNIYAMPALAYAM;NO:2/142-C AVINASHI ROAD;CHINNIYAMPALAYAM;COIMBATORE ;TAMIL NADU;30720;641062;9443914263
8071;AWDPM9721B;RASI MEDICALS & GENERALS;308500301000024;VIJ-THIRUVENDHIPURAM BRANCH;1, THEIVASIGAMANI NAGAR;KOOTHAPAKKAM;CUDDALORE,TAMILNADU  ;TAMIL NADU;30850;607002;9894288325
7631;AFIPT2721E;JAI  ALAGAPPAA JEWELERY MART PROP:TAMILSELVI;308506041000003;VIJ-THIRUVENDHIPURAM BRANCH;3,DEIVASIGAMANI NAGAR,KOOTHAPPAKKAM;CUDDALORE;CUDDALORE,TAMILNADU  ;TAMIL NADU;30850;607002;9994251134
5511;BCSPP9484J;PRAKASH AUTO SPARES;309000301000045;VIJ-ARANI BRANCH;NO 285-C S.M. ROAD, NEAR LIC OFFICE;ARNI, TVM DT.,;ARANI;TAMIL NADU;30900;632301;9489337070
5944;AABPV6645D;KAMAL JEWELLERY;309000301000219;VIJ-ARANI BRANCH;12A, LINGAPPAN STREET;ARANI THIRUVANNAMALAI DT;ARANI;TAMIL NADU;30900;632301;9443487779
7631;AAEPM4340H;SHANTHI JEWELLERY;309000301000220;VIJ-ARANI BRANCH;PROP MAHAVEER CHAND # 46, LINGAPPAN STREET,;ARANI THIRUVANNAMALAI DT;ARANI;TAMIL NADU;30900;632301;9894555019
5511;AFKPH3932D;DEEPAK AUTO CENTRE;309006041000017;VIJ-ARANI BRANCH;NO. 82-H, S.M. ROAD;ARNI;ARANI;TAMIL NADU;30900;632301;9486841740
5072;AJUPN8456C;THIRUMALAI HARDWARES & ROLLING SHUTTERS;309006211000004;VIJ-ARANI BRANCH;45/25 MANDI VEETHI,;ARNI;ARANI;TAMIL NADU;30900;632301;9443006882
7278;AABAG8549E;GREENWAY RECREATION CLUB;309400301000124;VIJ-PALLADAM BRANCH;10/471,E3,N.S.K NAGAR, PALLADAM ROAD;TIRUPUR;PALLADAM,TAMIL NADU;TAMIL NADU;30940;641605;9003919496
5462;60;AIWAS MALL;309400301000140;VIJ-PALLADAM BRANCH;628/A POLLACHI MAIN RAOD;OPP.TALUK OFFICE,PALLADAM TALUK,TIRUPPUR;PALLADAM,TAMIL NADU;TAMIL NADU;30940;641664;9443603500
5462;GGFPS4578L;ARULMEEGU MARIAMMAN SWEETS;309800301000080;VIJ-UDUMALPET;25,RAMALINGAM NAGAR,YASODHA RAMALINGA LAYOUT;NULL;TIRUPUR,TAMILNADU    ;TAMIL NADU;30980;642126;9003913448
4900;ABDFM7612A;M3 OILS AND FOOD PRODUCTS;309800301000115;VIJ-UDUMALPET;2/293  ,RUKKUMANIYAMMAL NAGAR,ANDHIYUR,;POOLANKINAR,UDUMALAIPETTAI;TIRUPUR,TAMILNADU    ;TAMIL NADU;30980;642122;9487163965
5311;ADLPH4971R;SRI NARASIMMA STORE;310100301000083;VIJ-PERAMBUR;18/34 LOCO WORKS;ROAD AGARAM;CHENNAI    ;TAMIL NADU;31010;600082;9841907061
4812;AMEPM8722H;SMS ZONE;310106041000002;VIJ-PERAMBUR;NO17/276, JAMBULINGAM MAIN ROAD;G K M COLONY;CHENNAI    ;TAMIL NADU;31010;600082;8939572080
5699;ABCDE1234;CLOVER SILKS;310400301000089;VIJ-MANNARGUDI BRANCH;12E 12F MELA THIRD STREET;MANARGUDI;MANNARGUDI;TAMIL NADU;31040;614001;8760687580
7298;AUKPM2138B;AADHITHYA HEALTH CARE;310406041000001;VIJ-MANNARGUDI BRANCH;56-1 PERI PREMI MALL COMPLEX FIRST FLOOR;SECOND BLOCK KEEL MEEL RUKMANI PALAYAM ROAD;MANNARGUDI;TAMIL NADU;31040;614001;9150419182
5971;BCYPJ7898E;SRI VENKATESWARA MALIGAI;310800301000003;VIJ-THENNAMPALAYAM,TAMILNADU;93/6C ANNUR ROAD;THENNAMPALYAM;COIMBATORE ;TAMIL NADU;31080;641407;9344875307
5511;AGOPL4289L;SRI VARI ELECTRICALS AND SERVICES;310900301000011;VIJ-PERUNDURAI,TAMILNADU;90/20 2ND STREET V.C.V.NAGAR;R.S.ROAD;PERUNDURAI,TAMILNADU;TAMIL NADU;31090;638052;9750202660
5533;ABCDE1234;HOTEL KANCHANA DEVI;311200301000076;VIJ-KURUMBAPALAYAM TAMILNADU;KALAPATTI ROAD KURUMBAPALAYAM;COIMBATORE;KURUMBA;TAMIL NADU;31120;641117;9884602606
5732;FMIPS6605C;MOBILE GALLERY;311200301000084;VIJ-KURUMBAPALAYAM TAMILNADU;DNO:144 KUPPUSAMY LAYOUT CHINNAVEDAMPATTI;COIMBATORE;COIMBATORE ;TAMIL NADU;31120;641109;9043089251
5311;ABCDE1234;ISSHAA AND CO;311206331000002;VIJ-KURUMBAPALAYAM TAMILNADU;SF NO 515 PACHAPALAYAM ROAD;KURUMBAPALAYAM;KURUMBA;TAMIL NADU;31120;641107;9787449001
5998;APYPV8868G;ARCHANA CELL SHOP;311600301000048;VIJ-KRISHNAGIRI,TAMILNADU;ARCHANA CELL SHOP,53,OLD SUBJAIL ROAD;D.D.D.C BUILDING,KRISHNAGIRI;KRISHNAGIRI,TAMILNADU;TAMIL NADU;31160;635001;9443465002
5942;AEHPG8725P;RAJ ENTERPRISES;312806211000003;VIJ-NUNGAMBAKKAM TAMILNADU;#2,SRI KRISHNA PURAM STREET;RAYAPETTAI,CHENNAI;CHENNAI    ;TAMIL NADU;31280;600014;9790706548
5999;AESPM5223M;RAMSS & CO;312806211000008;VIJ-NUNGAMBAKKAM TAMILNADU;NO77/19,C P RAMASAMY ROAD;ALWARPET,CHENNAI;CHENNAI    ;TAMIL NADU;31280;600018;9443744744
7523;AKZPP2517J;VARATHARAJAN P;380300301000007;VIJ-AIRPORT EC-TIRUCHIRAPALLI;CAR CONTRACTORS,AIRPORT,TRICHY AIRPORT;TRICHY;TIRUCHIRAPALLI,TAMILNADU       ;TAMIL NADU;38030;600200;9442257511
5533;AIQPM2774B;GEETHA MAHAS CATERING SERVICE;380300301000086;VIJ-AIRPORT EC-TIRUCHIRAPALLI;S1-24/4, MORAI CITY;AIRPORT, TRICHY;TIRUCHIRAPALLI,TAMILNADU       ;TAMIL NADU;38030;620007;9486749474
5311;AHGPP8131J;ANANTAPUR DIABETIC CENTRE;400200551000003;VIJ-ANANTAPUR ANDHRA PRADESH;D NO 14/1 SHOP NO 1 ,GROUND FLOOR;RAGHUVEERA TOWERS -ANANTAPUR;ANANTAPUR,ANDHRA PRADESH       ;ANDHRA PRADESH ;40020;515001;9848097455
5065;ACBPK9753H;INTERNATIONAL ELECTRONIC SHOP;400300301000299;VIJ-BANK STREET HYDERABA;HNO : 5-1-750-9 , HARIDASS MARKET;KOTI;HYDERABAD  ;ANDHRA PRADESH ;40030;500195;9849019693
7298;ADAFS1729F;S G ASSOCIATES;400800301000493;VIJ-WEST MARREDPALLI SECUNDERA;LG TOWERS PLOT NO 79/A& C 1ST FLOOR;ABOVE VIJAYA BANK WEST MAREDPALLY;SECUNDERABAD         ;TELANGANA STATE;40080;500026;9494072333
4722;AHDPR6651C;TRAVEL ANDHRA;401100301000208;VIJ-GUNTUR ANDHRA PRADESH;PROP:GALANKI SUBBA RAO, FIRST FLOOR,;D.NO.6-4-13, 4/4, ARUNDELPET,;GUNTUR,ANDHRA PRADESH;ANDHRA PRADESH ;40110;522002;8801393100
8299;AAATA5368D;ABN & PRR COLLEGE;401500300000346;VIJ-KOVVUR ANDHRA PRADESH;BY PASS ROAD;KOVVUR;KOVVUR,ANDHRA PRADESH;ANDHRA PRADESH ;40150;534350;9573295049
5912;ASNPM8106A;DEEPTHI MEDICALS & FANCY;401700301000220;VIJ-NELLORE ANDHRA PRADESH;PROP. MUNAGALA SUDHAKAR BABU, DNO 15-358;SHOP NO 9, SUBEDARPET, VENELAGANTI RAGHAVAIAH;NELLORE,ANDHRA PRADESH         ;ANDHRA PRADESH ;40170;524001;9849835795
5065;CMQPM2216J;SRI VIGNESWARA ELECTRICALS & AGENCIESS;401700301000226;VIJ-NELLORE ANDHRA PRADESH;PROP. MEKALA NARASIMHA RAO, DNO 354;VIJAYA DAIRY COMPLEX, SUBEDARPET;NELLORE,ANDHRA PRADESH         ;ANDHRA PRADESH ;40170;524001;9849570619
8099;ADLPM8124B;SREE BHAGYALAXMI MEDICAL AGENCIES;401700301000228;VIJ-NELLORE ANDHRA PRADESH;"PROP. M V SUBBARAO.DNO;14/174,";DEVIREDDY VARI STREET, TRUNK ROAD, NELLORE;NELLORE,ANDHRA PRADESH         ;ANDHRA PRADESH ;40170;524001;9989287821
5533;ADDFS2376M;SANVEE;401700301000231;VIJ-NELLORE ANDHRA PRADESH;PARTNER 1.M SANDHYA RANI 2. Y VENKATATESWARLU;DNO 23/1480/2 LECTURERS COLONY MAGUNTA LAYOUT;NELLORE,ANDHRA PRADESH         ;ANDHRA PRADESH ;40170;524003;9705925333
5999;ACMPR4288F;WAHIDASCANARA STORES;402600300000896;VIJ-VISHAKAPATNAM ANDHRA PRADE;26-15-92,MAIN ROAD, POORNA MARKET;                    VISAKHAPATNAM;VISHAKAPATNAM,AP;ANDHRA PRADESH ;40260;530002;9849582319
7631;AMSPM7047D;JAI RAJENDRA JEWELLERS;403000301000051;VIJ-TANUKU ANDHRA PRADESH;D NO 19-2-5/2 , PWD STREET;TANUKU;TANUKU,ANDHRA PRADESH;ANDHRA PRADESH ;40300;534211;8819226615
8062;AEPPK6689C;SIDDHARTHA SCANNING CENTRE;403000301000063;VIJ-TANUKU ANDHRA PRADESH;34-1-26/1 FLOUR MILLS STREET;NEAR CPI OFFICE;TANUKU,ANDHRA PRADESH;ANDHRA PRADESH ;40300;534211;9704237888
5947;AHPPN0053Q;SRI SAIRAM FANCY & PLASTIC CENTRE;403000301000087;VIJ-TANUKU ANDHRA PRADESH;# 34-13-11, BESIDE GAMINI PETROL BUNK;GAMINI COMPLEX, MAIN ROAD;TANUKU,ANDHRA PRADESH;ANDHRA PRADESH ;40300;534211;9290449073
8099;ANCPM0107F;SRI PADMAJA  MEDICALS;403000301000114;VIJ-TANUKU ANDHRA PRADESH;#25.8.35,RASTRPATHI ROAD,;TANUKU, W.G.DT.,  A.P.;TANUKU,ANDHRA PRADESH;ANDHRA PRADESH ;40300;534211;9550468469
8099;AAMFV0595M;VENKATA SAI  MEDICAL AND GENERAL STORES;403006041000012;VIJ-TANUKU ANDHRA PRADESH;D.NO-34-13-14  VENKATESWARA THEATRE COMPLOX;RASTRAPATHI ROAD TANUKU W.G DIST;TANUKU,ANDHRA PRADESH;ANDHRA PRADESH ;40300;534211;9848492277
8062;ADFFS9392D;SRI RAMA DEVI ORTHOPAEDIC HOSPITAL;403400301000387;VIJ-SAHEBNAGAR HYDERABAD;H.NO:6-3-2214/708/C  NGO'S COLONY;VANSTHALIPURAM  HAYATNAGAR;HYDERABAD  ;TELANGANA STATE;40340;500070;9441923605
5999;BKGPM3574G;VENKATA RAMANA FETRILIZERS AND PEST;403600300000043;VIJ-KOLAMURU ANDHRA PRADESH;S/O NARASIMHA RAJU H NO 12-263;SIVALAYAM DAGGARA, GANAPAVARAM;WEST GODAVARI;ANDHRA PRADESH ;40360;534198;9912364899
6012;ALQPO3534P;DVSR  I  SEVA     ALAMURU;403800301000033;VIJ-ALAMURU ANDHRA PRADESH;DV SRINIVASA REDDY; D.NO.1-293/3  ALAMURU;ALAMURU,ANDHRA PRADESH         ;ANDHRA PRADESH ;40380;534126;9441038444
6012;AADFT6198F;TAWAKKAL ENTERPRISES;404306211000003;VIJ-MALAKPET HYDERABAD;16-3-237/1,AKBAR KHANA,CHANCHALGUDA;HYD;HYDERABAD  ;ANDHRA PRADESH ;40430;500036;8978608510
5172;AACFA2467R;A SATYANARAYANA RAJU;404500300000055;VIJ-RAMCHANDRAPURAM A P;MG PT. A JAGANADHA VARMA -H P C LTD- DEALER,;NEAR OLD BUSSTAND-RAMACHANDRAPURAM;RAMCHANDRAPURAM,A P  ;ANDHRA PRADESH ;40450;533255;8857242272
5812;AAIFH0135P;HOTEL M K  SILVER COURT;404800301000266;VIJ-PUBLIC GARDEN ROAD HYDERAB;5-8-322/2&3  UMABAGH;NEAR MEDWIN HOSPITAL, HYDERABAD-500001;HYDERABAD  ;TELANGANA STATE;40480;500001;8886667786
5651;AFEPK5304C;JAGDISH PERSHAD ABHAY KUMAR;405800301000610;VIJ-CHARMINAR HYDERABAD;21-2-1, PATTHERGATTY;HYDERABAD;HYDERABAD  ;TELANGANA STATE;40580;500002;9848466405
5999;BOPPS4250G;SRI SHOBHA CYCLE STORES;406400301000027;VIJ-HANAMKONDA ANDHRA PRADESH;PROP S ILAMMA H.NO.3-3-40 TAILOR STREET;HANAMKONDA;HANAMKONDA,ANDHRA PRADESH      ;ANDHRA PRADESH ;40640;506001;9397957770
5651;ABBPE3223H;MALLIKA MATCHINGS;406400301000177;VIJ-HANAMKONDA ANDHRA PRADESH;PROP:E RAJU,H.NO:4-9-18,BEHIND C P REDDY;COMPLEX,CHOWRASTA;HANAMKONDA,ANDHRA PRADESH      ;TELANGANA STATE;40640;506001;9951245890
5651;CQZPB1380F;ROYAL FASHIONS;406400301000185;VIJ-HANAMKONDA ANDHRA PRADESH;PRO:PRABHAKAR 11-19-155;KASHIBUGGA;WARANGAL   ;TELANGANA STATE;40640;506002;9908353998
5944;AANFN6662L;NANDINI PEARLS & JEWELLERS;406400301000187;VIJ-HANAMKONDA ANDHRA PRADESH;H NO 4-9-64 MAIN ROAD;HANAMKONDA;HANAMKONDA,ANDHRA PRADESH      ;TELANGANA STATE;40640;506001;9866330285
5944;ARWPG2989D;PARAMESHWARI JEWELLARY WORKS;406400301000190;VIJ-HANAMKONDA ANDHRA PRADESH;PROP:JALENDRA CHARY,HNO:4-9-82;KUMARPALLY;HANAMKONDA,ANDHRA PRADESH      ;TELANGANA STATE;40640;506001;9866962872
7512;AAEPH4350E;TRIVENI TYRES AGENCIES;407500300050355;VIJ-KARIMNAGAR ANDHRA PRADESH;PROP: H. RAVINDER REDDY,;SHOP NO. 2-3-148,KAMAN ROAD;KARIMNAGAR,ANDHRA PRADESH      ;TELANGANA STATE;40750;505001;9246932451
5813;AAFFN5450L;NAGINI RESTAURANT & BAR.;407500300050564;VIJ-KARIMNAGAR ANDHRA PRADESH;"H NO;2-7-204&206.   BUS STAND ROAD";                    KARIMNAGAR.;KARIMNAGAR,ANDHRA PRADESH      ;ANDHRA PRADESH ;40750;505001;9948147054
5511;AAMFV6558L;V.S. AUTOMOBILES;407500301000229;VIJ-KARIMNAGAR ANDHRA PRADESH;HNO 2-4-14 NEAR DOBIWADA STADIUM ROAD SIKHWAD;KARIMNAGAR;KARIMNAGAR,ANDHRA PRADESH      ;TELANGANA STATE;40750;505001;9908573172
5651;AENPV8261M;NEW HI FI COLLECTIONS;407500301000235;VIJ-KARIMNAGAR ANDHRA PRADESH;PROP'T VADDE SHARATH REDDY, H NO. 10-4-92;VAVILALAPALLY,  KARIMNAGAR.;KARIMNAGAR,ANDHRA PRADESH      ;TELANGANA STATE;40750;505001;9000220008
4215;AKDPG6674K;SRI VINAYAKA AGENCY;408300301000441;VIJ-KUKATPALLI;SHOPNO:3,PLOT NO:14&15,SAI SAMARDH RESIDENCY,;KPHB COLONY,OPP KANAKADURGA TEMPLE,KUKATPALLY;HYDERABAD  ;TELANGANA STATE;40830;500072;9397346133
8299;AAAAN3561C;NRI EDUCATIONAL SOCIETY;408300551000004;VIJ-KUKATPALLI; D NO 4-5-29/85 4TH LINE VIDYANAGAR GUNTUR;GUNTUR;GUNTUR,ANDHRA PRADESH;ANDHRA PRADESH ;40830;522007;9490626924
8398;AAPTS1765B;SRI VENKATESHWARA SWAMY DEVASTHANAM TRUST;408301011005287;VIJ-KUKATPALLI;B.NARAYANA REDDY, PLOT NO-54;VASANTHA NAGAR, KUKATPALLY;HYDERABAD  ;TELANGANA STATE;40830;500085;9849661792
8062;AHAPK1059Q;RAMA E. ALIAS K RAMA;408501011000931;VIJ-GANDHINAGAR HYDERABAD;1-1-710/2, ''SIRI VANI KUTEER'';GANDHINAGAR,;HYDERABAD  ;TELANGANA STATE;40850;500080;9246591755
5462;AZIPK4172A;SATYANARAYANA.K.;409201011000366;VIJ-MEHDIPATNAM;H.NO.13-6-439/1/A/119,;BALAJI NAGAR, KARWAN.;HYDERABAD  ;ANDHRA PRADESH ;40920;500028;9247353022
5944;ASSPB7412M;KRISHNA JEWELLERS & PAWN BROKERS;410000301000095;VIJ-THUMKUNTA;M/S KRISHNA JEWELLERS &PAWN BROKERS;3-8-5/5,NEAR BUS STATION,RTHUMKUNTA;THUMKUNTA,ANDHRAPRADESH;TELANGANA STATE;41000;500078;9866882962
8062;ACPFS3503D;M/S.SASA;410100301000052;VIJ-SANGAREDDY,ANDHRAPRADESH;PLOT 1&2,SY NO;209,OPP GOKUL HOSP,NEAR SANJEEV NAGAR COLONY,;SANGAREDDY,ANDHRAPRADESH;TELANGANA STATE;41010;502001;9440362390
5311;AIUPG0817H;SRI SAI GENERAL & FANCY STORE;411100301000012;VIJ-KOTHAPALLI;PROP: NUKALA CHANDRA SEKHAR;B KODURU (V) NANDYAL (M) KURNOOL DIST;NANDYAL,ANDHRA PRADESH         ;ANDHRA PRADESH ;41110;518502;9989252913
5311;BIXPD1891G;SRINIVASA TRADERS;411500551000002;VIJ-KUNCHANAPALLI;PROP: VENKAT REDDY DATLA, D.NO.12-457-2;SS TOWERS, TADEPALLI;GUNTUR,ANDHRA PRADESH;ANDHRA PRADESH ;41150;522501;9966494967
5732;AUUPV9224F;SRI VIJAYA BATTERIES AND INVERTERS;415506211000001;VIJ-SIDDIPET,TELANGANA;PROP: VSV PRASAD, # 18-57;BESIDE NEW BUS STAND, HYD. ROAD, SIDDIPET;SIDDIPET,TELANGANA;TELANGANA STATE;41550;502103;8801488007
5651;ARTPV9719P;SRI LAXMI COLLECTIONS;415600301000046;VIJ-BODUPPAL TELANGANA;H NO 9-61/A NEAR HIMSAI CREATIONS;HANUMAN NAGAR BODUPPAL RANGAREDDY;R R DISTRICT;TELANGANA STATE;41560;500092;8143285669
5399;EHWPK0819N;SRI RAJA RAJESHWARA KIRANA AND GENERAL STORES;416100301000017;VIJ-MANCHERIAL;"PROP : KUMARI KALAPALA, # 1-40/1A,CCC""X"" ROAD";JYOTHINAGAR, CCC NASPUR, ADILABAD;MANCHERIAL,TELANGANA;TELANGANA STATE;41610;504208;7386318599
8099;ADMPS8423N;MANCHERIAL MEDICAL AND GENERAL STORES;416100301000031;VIJ-MANCHERIAL;# 8-576 MAIN ROAD;MANCHERIAL;MANCHERIAL,TELANGANA;TELANGANA STATE;41610;504208;9866795205
5732;BHAPR1129R;SRI SAI TECHNOLOGY;416106361000001;VIJ-MANCHERIAL;PROP:MAHESH RENIKUNTLA, # 8-26, CCC'X' ROAD;NASPUR, ADILABAD;MANCHERIAL,TELANGANA;TELANGANA STATE;41610;504302;8179689311
5999;ALFPN2990Q;VIJAYA LAKSHMI FERTILIZERS & PESTICIDES GENERAL MERCHANTS;418700571000001;VIJ-GALAYAGUDEM;PROP:NAGESH.N,GALAYAGUDEM,;N D PADU,6TH MILE,WG DIST;ELURU,ANDHRA PRADESH ;ANDHRA PRADESH ;41870;534001;9441791991
8062;AADPS2548G;SHETTY NURSING HOME;500200301000659;VIJ-BANDRA(W) MUMBAI;21/22 HILL N DALE BUILDING;HILL ROAD BANDRA W;MUMBAI     ;MAHARASHTRA ;50020;400050;9820044730
8062;AADPS2548G;JYOTI POLYCLINIC & DIAGNOSTIC CENTRE;500200301000660;VIJ-BANDRA(W) MUMBAI;F 31 H N 160 HILL RD;14 CLIFF TOWER MT MARY RD BANDRA W;MUMBAI     ;MAHARASHTRA ;50020;400050;9820044730
5812;AUVPS6977K; HOTEL USHAKIRAN;500400301000888;VIJ-CHINCHWAD PUNE;C/1-903, GANGA SKIES S NO 174/A;VALLABH NAGAR, PIMPRI;PUNE       ;MAHARASHTRA ;50040;411018;8308639363
5812;AAMPI7356R;GUSTAD;501500300005152;VIJ-CHIRABAZAR MUMBAI;4TH FLOOR,MOHAMEDALI241 PRINCESS ST;CHIRA BAZAR ROAD    MUMBAI;MUMBAI     ;MAHARASHTRA ;50150;400002;9892055763
5812;EOMPS2018A;SHRI HOTEL DURGA PUNJAB;501900301000668;VIJ-THANA(W) MAHARASTRA;KADAM CHAL,KISAN NAGAR NO-2,ROAD NO-16,;WAGLE ESTATE,THANE-W;MUMBAI     ;MAHARASHTRA ;50190;400604;9619396809
5732;BMLPG3569G;SAHYADRI COMPUTERS;502600301000238;VIJ-KARAD MAHARASTRA;R.S.NO-136/A, 137/138, LAXMI PRESTIGE,;MANGALWAR PETH;KARAD,MAHARASTRA     ;MAHARASHTRA ;50260;415103;9623777080
5912;ADEFS4630B;SHAILAJA MEDICAL;502600301000315;VIJ-KARAD MAHARASTRA;IIND FLOOR, SHITAL CHEMBERS,;OPP.COTTAGE HOSPITAL,BUDHWAR PETH,;KARAD,MAHARASTRA     ;MAHARASHTRA ;50260;415110;9322373096
8062;AAPPT6318M;TRIMBAKE SKIN AND COSMETIC LASER CENTRE & HOSPITAL,KARAD;502600571000001;VIJ-KARAD MAHARASTRA;T.P.SCHEME NO-1, PLOT NO-14, YASHWANT BLDG.,;BUDHWAR PETH, IN FRONT OF COTTAGE HOSPITAL,;KARAD,MAHARASTRA     ;MAHARASHTRA ;50260;415110;8888904500
5912;ABCDE1234;SIDDHANATH MEDICAL & GENERAL STORES;502606211000020;VIJ-KARAD MAHARASTRA;12-C;MANGALWAR PETH,;KARAD,MAHARASTRA     ;MAHARASHTRA ;50260;415110;8793064444
5655;ARZPR0177M;SUBHADRA MAA COLLECTION;502800301000378;VIJ-WORLI MUMBAI;S NO 9 PUNAWALA CHAWL NO 3  3 GANPATRAO KADAM;MARG LOWER PAREL MUMBAI;MUMBAI     ;MAHARASHTRA ;50280;400013;9867893190
5812;AEKPS1998B;ROHAN CATERERS;503600300000833;VIJ-NASIK MAHARASTRA;KRISHNA APARTMENTS  R.NO. 4, NR. PAWAR;HOSPITAL, SATPUR    NASHIK;NASIK,MAHARASTRA     ;MAHARASHTRA ;50360;422007;9822007781
5211;AKAPB6783F;SHIVRAJ  ENTERPRISES;503906211000012;VIJ-AURANGABAD MAHARASTRA;X-8/1- MIDC AREA PAITHAN;TQ PAITHAN DIST AURANGABAD;AURANGABAD,MAHARASTRA;MAHARASHTRA ;50390;431107;9822536916
5311;ALSPK4455E;AADHAR MEDICAL & GENERAL STORES;505900301000130;VIJ-NANDED MAHARASTRA;AADHAR HOSPITAL, SHIVAJI NAGAR;NANDED;NANDED,MAHARASTRA    ;MAHARASHTRA ;50590;431602;9823115339
8099;ABZFS7590M;SHREE SANJEEVANI MEDICAL AND GENERAL STORES;505900301000363;VIJ-NANDED MAHARASTRA;PLOT NO-44/45 H NO-1-1-69/10;WADIYA FACTORY AREA,SHIVAJI NAGAR;NANDED,MAHARASTRA    ;MAHARASHTRA ;50590;431602;9890619657
5976;ABCDE1234;FITNESS  FACTORY;506500301000511;VIJ-KALYANI NAGAR PUNE;ARISSA AVENUE BLOC C 201 AND 204 SNO 58/2/14;58/1 KHARADI PUNE 4110014;PUNE       ;MAHARASHTRA ;50650;411014;9923119094
5812;AAECA7337B;AURA SHELTERS PRIVATE LIMITED;507500301000675;VIJ-MALAD (W) MUMBAI;9 JAI HIND COLONY OPP DAULAT NAGAR S V ROAD;BORIWALI EAST;MUMBAI     ;MAHARASHTRA ;50750;400066;9320310101
5812;AEBPS8214H;HOTEL PADMAVATI BHUVAN;507900301000492;VIJ-THAKURVILLAGE,KANDIVILI(E);DEVELA PADA, MAGATHANE NEAR TATA POWER HOUSE;WESTERN EXPRESS HIGHWAY, BORIVALI (E), MUMBAI;MUMBAI     ;MAHARASHTRA ;50790;400066;9324124122
8299;AJCPS7539P;ALPHA BETA EDUCATIONAL BOOKS;509700301000349;VIJ-TRIMURTY NAGAR,NAGPUR;185, NIT LAYOUT RING ROAD;TRIMURTI NAGAR;NAGPUR     ;MAHARASHTRA ;50970;440022;9970179837
5812;DESPS6610K;PRAJA SNACKS;509900301000333;VIJ-LOUSIWADI,MAHARASTRA;C/O PRITHVIRAJ SHETTY, LODHA SER RD CORNER,;JUNCTION OF NASIK HIGHWAY, MAJIWADA THANE WES;THANA;MAHARASHTRA ;50990;400601;9930463322
5812;AATFP3228J;HOTEL PUSHPAK BAR AND RESTAURANT;510500301000062;VIJ-KALINA MUMBAI;S NO 3 PLOT 64/A BHAGIRATHI CHL KALINA KURLA;ROAD OPP CHURCH SANRACRUZ EAST;MUMBAI     ;MAHARASHTRA ;51050;400029;9867363888
5732;BCRPP9479G;OM ELECTRONICS NX;510600301000037;VIJ-KALINA MUMBAI;SH NO-2,YASHWANT NIWAS,NR POPULAR HOTEL;HINGWALA LINE,GHATKOPAR EAST;MUMBAI     ;MAHARASHTRA ;51050;400077;9029994452
5999;ABCDE1234;GODAWARI SEEDS AND FERTILIZERS;511200301000129;VIJ - BHANDARA,MAHARASTRA;HANUMAN WARD BADA BAZAR;BHANDARA;BHANDARA,MAHARASTRA;MAHARASHTRA ;51120;441904;9975572026
5944;AARPL8820E;SANJAY JEWELLERS;511200301000206;VIJ - BHANDARA,MAHARASTRA;INFRONT OF PATAVARI BHAVAN;SANJAY JEWELLERS TAKIYA WARD BHANDARA;BHANDARA,MAHARASTRA;MAHARASHTRA ;51120;441904;9112183046
5021;AIRPK4597R;KAMBOJ FURNITURE INDUSTRIES;511206041000001;VIJ - BHANDARA,MAHARASTRA;NH-6, NEAR PATWARI BHAWAN;RAMABAI AMBEDKAR WARD, BHANDARA;BHANDARA,MAHARASTRA;MAHARASHTRA ;51120;441904;9422130986
5533;CPZPM9469K;SARWADNY DHABA;511700301000048;VIJ-BAMRUD KHURD;AT POST ANTURLI FATA;TA PACHORA DIST JALGAON;JALGAON,MAHARASTRA   ;MAHARASHTRA ;51170;424201;9011572612
8099;BEJPD9459N;OM SAI MEDICAL;512306041000007;VIJ-KOPARGAON;SHOP NO.1,NAIKWADE HOSPITAL BANK ROAD;KOPARGAON,DIST-AHMEDNAGAR;KOPARGAON,MAHARASTRA;MAHARASHTRA ;51230;423601;9763052611
5713;BHZPC3378J;GUJRAT TILES;513000301000264;VIJ-KHARADI;PROP -JALPABEN CHAUHAN,SNO 124/2/3/2,;KHANDVENAGAR,LOHEGAON ,PUNE;PUNE       ;MAHARASHTRA ;51300;411047;9730738056
5734;CUSPK1391Q;XPRESS MART;513000301000266;VIJ-KHARADI;FLAT NO 302 TOWER,03 GHERA SKYVILLA,NEXT TO;GERA BUNGLOW,,KHARADI,PUNE;PUNE       ;MAHARASHTRA ;51300;411014;7875276236
7298;AQVPR3787Q;K.  B. ENTERPRISES;513200301000043;VIJ-AMBERNATH;K. D.AND SERVISES,OFFICES-NO-19,KAILASH  SHOP;COMPLEX,KAILASH NGR. VADAVALI SEC.AMBERNATH-E;THANA;MAHARASHTRA ;51320;421501;9762734930
5971;ABCDE1234;IG VARIETY AND HOME APPLIANCES;514500301000003;VIJ-LOHEGAON,PUNE;PROF : LAXMAN CHAUDHARI OM  PALACE SR NO 279;LANE NO 10 SWAMI SAMRTH NAGAR LOHEGAON PUNE;PUNE       ;MAHARASHTRA ;51450;411047;9730308815
8062;ABCDE1234;HALLMARK HOSPITALITY SERVICES;514500301000453;VIJ-LOHEGAON,PUNE;SHINDE RESIDENCY,SANT NAGAR,LANE NO 7,;LOHEGAON;PUNE       ;MAHARASHTRA ;51450;411047;9970677298
5072;AEAPC5163L;KRISHNA HARDWARE AND ELECTRICALS;514500301000480;VIJ-LOHEGAON,PUNE;SR NO 281,HISSA NO 3/5,SHOP NO 4,;SHREE GANESH AANGAN,A WING,LOHEGAON;PUNE       ;MAHARASHTRA ;51450;411047;9892262550
5651;AGPPP0372B;KANGANA SAREES & MENS WEAR;515100301000099;VIJ-NANDGAONPETH;CITYLAND COMPLEX BLOCK E 29,30;BORGAON DHARMALE AMRAVATI;AMRAVATI;MAHARASHTRA ;51510;444901;8806317836
5712;ARVPC1755G;SHRI VENKATADRI ENTERPRISES;515400301000003;VIJ-GARKHEDA;PLOT NO.9/A VASANTNAGAR JAWAHAR COLONY;NEAR DUSHYANT FURNITURE OPP.HEGDEWAR HOSPITAL;AURANGABAD,MAHARASTRA;MAHARASHTRA ;51540;431009;8275555999
5999;AVBPS5653D;ADINATH TRADERS;515400301000025;VIJ-GARKHEDA;SHOP NO 04, KAUTUK COMPLEX AGNIHOTRA CHOWK;ULKANAGARI ROAD AURANGABAD;AURANGABAD,MAHARASTRA;MAHARASHTRA ;51540;431009;9595437547
5065;AKWPJ8441J;PRASHANT ELECTRICALS AND ELECTRONICS SALES & SERVICE;515400301000035;VIJ-GARKHEDA;FLAT NO. D-3 GUT NO. 77 SATARA PARISAR;RADHA KRUSHNA RESIDENCY AURANGABAD;AURANGABAD,MAHARASTRA;MAHARASHTRA ;51540;431001;9823604689
5812;ACMPN4811G;SAYALI  RESTAURANT;515400301000136;VIJ-GARKHEDA;PLOT NO 19, AGNIHOTRA CHOWK NANDADEEP;MITRAVIHAR COLONY  GARKHEDA AREA AURANGABAD;AURANGABAD,MAHARASTRA;MAHARASHTRA ;51540;431009;9665160675
5812;ALXPT3791K;CHINA TOWN NXT;515400301000156;VIJ-GARKHEDA;SHOP NO 04, RELIANCE MALL;GARKHEDA PARISAR AURANGABAD;AURANGABAD,MAHARASTRA;MAHARASHTRA ;51540;431001;7040928252
5699;CAIPM4215R;SHIV ENTERPRISES GADCHIROLI;516000301000015;VIJ-CADCHIROLI MAHARASHTRA;RAMNAGAR WARD NO 8 BEHIND SHIVAJI COLLEGE;MAIN ROAD GADCHIROLI MAHARASTRA;GADCHIROLI;MAHARASHTRA ;51600;442605;9822311488
5732;ABCDE1234;DECENT COLLECTION;516000541000001;VIJ-CADCHIROLI MAHARASHTRA;TRIMURTI CHOUK, SARVODAY WARD,;BAZAR RIOAD, DIST- GADCHIROLI.;GADCHIROLI;MAHARASHTRA ;51600;442605;9420511786
5139;AEHPN4226Q;DADA SHOE CO.;600600301000815;VIJ-CANTONMENT NEW DELHI;IV/1/53-54,         GOPINATH BAZAR;DELHI CANTT         N DELHI;DELHI      ;DELHI ;60060;110010;9899192364
5065;CKJPK9910L;K. M. TRADERS;600600301000829;VIJ-CANTONMENT NEW DELHI;6/140, JHARERA VILLAGE;DELHI CANTT;DELHI      ;DELHI ;60060;110010;8800207056
4784;AAHCS2358H;SKYLARK INFRA ENGINEERING PRIVATE LIMITED;600600301000852;VIJ-CANTONMENT NEW DELHI;H NO - 1/84 FIRST FLOOR SADAR  BAZAR;DELHI CANTT;DELHI      ;NEW DELHI;60060;122017;7089002102
7296;AARFS2496K;STANDARD ARMY STORE;600607711000003;VIJ-CANTONMENT NEW DELHI;14/1/49             GOPINATH BAZAR;DELHI CANTT         NEW DELHI;DELHI      ;DELHI ;60060;110010;9810190283
5072;AAEFA3118K;ARORA GASKETS;600800300004519;VIJ-KAROLBAGH NEW DELHI;29/1550 NAIWALA     KAROL BAGH;NEW DELHI;DELHI      ;DELHI ;60080;110005;9811182410
5651;AGXPK7111R;KALRA CARPETS/PROPHARPREET SINGH KALRA;600800301000167;VIJ-KAROLBAGH NEW DELHI;STALL NO.29, GAFFAR MARKET, KAROL BAGH;NEW DELHI;DELHI      ;DELHI ;60080;110005;9810487393
5651;AODPA6338N;FASHION FUSION (ASHWANI PROP);600800301000757;VIJ-KAROLBAGH NEW DELHI;SHOP NO-3. G/F IN-17-A-20 WEST EXTN AREA,;KAROL BAGH NEW DELHI;DELHI      ;DELHI ;60080;110005;9811134584
5944;AABFK0976E;KIDARSONS JEWELLERS;600806041000005;VIJ-KAROLBAGH NEW DELHI;2646 BANK STREET;KAROLBAGH;DELHI      ;DELHI ;60080;110005;9810808881
5699;AIMPC6049B;S.R.S CREATIONS;601100301000351;VIJ-R K PURAM NEW DELHI;SHOP NO-1,SECTOR-2;RK PURAM,NEW DELHI;DELHI      ;DELHI ;60110;110022;9871555268
8062;AACFC7535N;THE CAPITAL X-RAY CLINIC.;601300300002314;VIJ-KRISHNA PARK NEW DELHI;C-37 A HARI NAGAR,  NEAR DDU HOSPITAL.;NEW DELHI;DELHI      ;NEW DELHI;60130;110018;9911226464
4900;AEWPG7680N;SHARMA GAS CO.;601300301000562;VIJ-KRISHNA PARK NEW DELHI;SHOP NO A1& A2, SHRI SANATAN DHARAM;MANDIR MKT, H BLOCK, UTTAM NAGAR;NEW DELHI  ;DELHI ;60130;110049;8800415454
8299;AAAAI8458D;PRINCIPAL, I.G.I.P.E.S.S, NEW DELHI;601301010010706;VIJ-KRISHNA PARK NEW DELHI;B-BLOCK, VIKASPURI;NEW DELHI;NEW DELHI  ;NEW DELHI;60130;110018;8010226277
8062;AAFPD0296A;JEEVAN JYOTI CLINIC & NURSING HOME;601306010230065;VIJ-KRISHNA PARK NEW DELHI;M-131,VIKAS PURI    NEW DELHI;NEW DELHI;DELHI      ;DELHI ;60130;110018;9811086688
7011;AAACG7220K;GOA TOURISM DEVELOPMENT CORP LTD;602300300000002;VIJ-MAPUCA GOA;SECOND FLOOR ,PARYATAN BHAVAN;PATTO;PANAJI;GOA;60230;403001;9403272165
8099;AIDPM8859J;AURO MEDICAL SYSTEMS;602400301000490;VIJ-PONDICHERRY;NO.99, LENIN STREET;KOSAPALAYAM;PONDICHERRY;PONDICHERRY ;60240;605013;9842322023
8299;AAATN7590A;NEW MODERN VIDYA MANDIR;602401010003733;VIJ-PONDICHERRY;73-A,PILLAYAR KOIL STREET,ANGALAMMAN NAGAR;MUTHIALPET;PONDICHERRY;PONDICHERRY;60240;605003;9894121277
5732;AABFF3700F;FLOW TECH;602406211000023;VIJ-PONDICHERRY;PARTNERS : ANANDAN A & ANANDHI A;154, KOSAKADAI STREET;PONDICHERRY;PONDICHERRY ;60240;605001;9443723382
5651;AEWPC4773Q;KAPUR SINGH CHA;603200300000049;VIJ-PORT BLAIR ANDAMAN & NICOB;PROP: RENU CHANI, JUNGLIGHAT,;PORBLAIR;PORT BLAIR,ANDAMAN & NICOBAR   ;ANDAMAN & NICOBAR;60320;744101;9474241747
5311;AHUPB3170F;S.B.STORES PROP.SELVAM BALU;603200301000094;VIJ-PORT BLAIR ANDAMAN & NICOB;SHOP NO 07 RATNAM MARKET PORT BLAIR;ANDAMAN;PORT BLAIR,ANDAMAN & NICOBAR   ;ANDAMAN & NICOBAR;60320;744101;9434283075
5311;AISPR0540G;G S STORE PROP M RAJENDRAN;603206211000062;VIJ-PORT BLAIR ANDAMAN & NICOB;DUDHLINE NAYAGAON WARD NO 15 P.O.SADHIPUR;P.O.SADHIPUR PORT BLAIR ANDAMAN;PORT BLAIR,ANDAMAN & NICOBAR   ;ANDAMAN & NICOBAR;60320;744106;9932489485
5172;AKGPK4060J;HARAN AGENCY PRO.M KUMAR;603207711000002;VIJ-PORT BLAIR ANDAMAN & NICOB;34,MUNCIPAL MARKET;NEAR JTC PETORL;PORT BLAIR,ANDAMAN & NICOBAR   ;ANDAMAN & NICOBAR;60320;744101;9434263406
5311;AAOFB3020H;BIG FARMERS MEGA STORE;607800541000005;VIJ-ROHINI SEC-18,DELHI;A-3/57, GF, BLOCK-A, PKT-3, SECTOR-18;ROHINI, DELHI;DELHI      ;NEW DELHI;60780;110089;9911262477
8099;BCTPS1067D;RAJ MEDICOSE;607806211000001;VIJ-ROHINI SEC-18,DELHI;S NO. 22, DDA MARKET , SECTOR-18, NORTH;WEST (DELHI );DELHI      ;NEW DELHI;60780;110089;9953891737
5732;ADKPJ7206N;ELECTRONIC PLANET;607900301000038;VIJ-SHALIMAR BAGH;AG-4, BASEMENT;SHLAIMAR BAGH;NEW DELHI  ;DELHI ;60790;110088;9212071415
5651;AOXPA5439C;MONTY'S SPECIAL COLLECTION;650200301000068;VIJ-ETAWAH;272 KATRA SEVAKALI;ETAWAH;ETAWAH;UTTAR PRADESH;65020;206001;9410641315
5732;AGFPG4766N;NEW MAYUR ELECTRONICS;650300301000014;VIJ-ORAI BRANCH;NO 8 GANDHI NAGAR;ORAI;ORAI;UTTAR PRADESH;65030;285001;9415032089
5651;AASPO4332M;CHANDA MAMA KIDS WERE ORAI;650306041000012;VIJ-ORAI BRANCH;HN35 MAN VEER PURA;ORAI;ORAI;UTTAR PRADESH;65030;285001;9919282100
8299;AAATH7199D;R.A.S SCHOOL OF NURSING;650500301000016;VIJ-JAUNPUR,WAZIPUR;7 TH KM MILE STONE, KULHNAMAU;LUCKNOW ROAD;JAUNPUR    ;UTTAR PRADESH;65050;222002;9415207397
5511;ARSPP7353E;P K TYRE AGENCY;650500301000086;VIJ-JAUNPUR,WAZIPUR;P K TURE AGENCY,WAZIDPUR TIRAHA;JAUNPUR;JAUNPUR    ;UTTAR PRADESH;65050;222002;7905209306
5511;AAEFF0503D;FUTURZ AUTO;651806211000002;VIJ-MUNSHIPULIA,LUCKNOW;PLOT NO. 1 TAKROHI;NEAR IOC PETROLPUMP;LUCKNOW    ;UTTAR PRADESH;65180;226016;9415086024
5065;AILPB6579J;KRIPAL TRADERS PROP. RAHUL KUMAR BARANWAL;652200301000004;VIJ-JAKHNI KALN-LAMBHUA;H NO- 130 VILL N POST- LAMBHUA;THE- LAMBHUA, DIST.-SULTANPUR;JAKHNI KALAN-LAMBHUA,UTTAR PRADESH;UTTAR PRADESH;65220;222302;7309025363
5944;AQYPK4535A;GAHNA JEWELLERS;653000301000047;VIJ-PANCHAYAT-UNCHAHAR DEHAT;KHOJANPUR, MUSTAFABAD, UNCHAHAR;RAEBARELI;PANCHAYAT-UNCHAHAR DEHAT;UTTAR PRADESH;65300;229404;9838598783
5511;AVDPK6809M;GOVIND TRADERS;653006041000001;VIJ-PANCHAYAT-UNCHAHAR DEHAT;PROP. ARVIND KUMAR;NEAR KABEER CHAURAHA;PANCHAYAT-UNCHAHAR DEHAT;UTTAR PRADESH;65300;229401;9415552750
5311;AIWPR0086R;RAJORA MICRO MART;653400301000100;VIJ-RISHIKESH;RAJORA MICRO MART SHOP-NO-1;MANIRAM ROAD MAHVEER COMPLEX RISHIKESH;RISHIKESH,UTTARANCHAL;UTTARANCHAL;65340;249201;9897249110
5947;ATTPJ4594Q;PARAS GIFT CENTER;653407951000005;VIJ-RISHIKESH;10- MUKHERJEE MARG;RISHIKESH;RISHIKESH,UTTARANCHAL;UTTARANCHAL;65340;249201;9897883283
5065;AJVPP3851G;KRISHNA DIGITAL CABLE NETWORK;653407951000010;VIJ-RISHIKESH;SHIV SUMER PANDEY, 15- MUKHERJI MARG,;RISHIKESH;RISHIKESH,UTTARANCHAL;UTTARANCHAL;65340;249201;9410316155
5065;AKNPK0040M;ANKITA ELECTRICAL WORKS;654706041000001;VIJ-PREETAM NAGAR,ALLAHABAD;39/2 ADARSH COLONY G.T. ROAD;PONGHAT ALLAHABAD;ALLAHABAD  ;UTTAR PRADESH;65470;211011;9839218548
5311;ABCDE1234;SUNIL KUMAR SHARMA;655201231000246;VIJ-KAURALI;WARD NO. 3, VILLAGE KURALI;BAGHPAT ROAD;MEERUT,U P ;UTTAR PRADESH;65520;250501;9927820198
6300;AFHPB7430H;DEEPAK CHANDRA BHATT;655800301000024;VIJ-TANAKPUR;S/O PAN DEV BHATT, VISHNUPURI 58/58,MOHANPUR;TANAKPUR;TANAKPUR, CHAMPAWAT;UTTARANCHAL;65580;262309;9897346384
5451;ARCPA7585M;PUJA DAIRY & ICE CREAM PARLOR;660400301000001;VIJ-PALI,KORBA;LAPHA ROAD SHANTI NAGAR PALI;DIST-KORBA;KORBA      ;MADHYA PRADESH;66040;495449;9300081622
5944;BDYPS6436G;AKASH JWELLERS;660400301000045;VIJ-PALI,KORBA;BAJAR KE PASS PALI,  TEH-PALI;DIST-KORBA;PALI;MADHYA PRADESH;66040;495449;9981551219
5732;ANHPJ9526G;SHIV SALES;690206041000005;VIJ-HALVAD GUJARAT;313A CROSS ROAD COMPLEX 3RD FLOOR;SARA CHOKDI;HALVAD,GUJARAT;GUJARAT;69020;363330;9601999102
4812;CDHPS1212C;AANYA TELECOM;690600301000001;VIJ-VALLABH VIDYA NAGAR;G-6 VAIDARBHI COMPLEX,;JANTA CHOKDI , V V NAGAR;VALLABH VIDHYANAGAR;GUJARAT;69060;388120;8000810959
5533;AAFPS4229J;GOVIND HOTEL.;700307711000001;VIJ-JODHPUR RAJASTAN;STATION ROAD,;JODHPUR;JODHPUR,RAJASTAN     ;RAJASTHAN ;70030;342001;9413574901
5533;ABCDE1234;FORT AALIYAH;701407751000001;VIJ-CITY PALACE UDAIPUR;92 C BLOCK SHIKAR BADI COLONY;SHIKAR BADI HOTEL;UDAIPUR    ;RAJASTHAN ;70140;313001;9460383219
5999;AAOPL4278P;MAHESH PACKERS & MOVERS;701600301000373;VIJ-KOTA;C/O-SHOP NO-39,PRAKASH ENTERPRISES;HIMALYA COMPLEX,SHAKTI BAZAR,SUBZI MANDI;KOTA       ;RAJASTHAN ;70160;324001;9352770755
5311;ADFPC3913J;JANPRIYA PAN;701800301000232;VIJ-R.C. VYAS COLONY, BHILWARA;PROP.- RAJ KUMAR PAHALWANI, SHOP NO. 16;NEAR PANI KI TANKI, R K COLONY,,BHILWARA;BHILWARA   ;RAJASTHAN ;70180;311001;8769639966
5912;AOWPG8481P;MAA MEDICOSE;701806211000014;VIJ-R.C. VYAS COLONY, BHILWARA;PROP.-MANISH KUMAR GANDODIYA,8 - P -5-6;OP.MAHAVIR HOSPITAL,R.C.VYAS COLONY, BHILWARA;BHILWARA   ;RAJASTHAN ;70180;311001;9636487601
5948;EWXPS0028D;BAGAGE BAGS & LUGGAGE POINT;704000301000008;VIJ-DAHMI KALA,RAJASTHAN;SHAMBHAR WALO KI CHAKKI;MAIN BAZAR BAGRU, SANGANER;JAIPUR     ;RAJASTHAN ;70400;303007;9782111200
5651;AANPY2267N;B.K ENTERPRISES;704906041000002;VIJ-SITAPURA,RAJASTHAN;PROP- MANJU DEVI YADAV, 121/77, SEC-12,;VIJAY PATH, MANSAROVER;JAIPUR     ;RAJASTHAN ;70490;302020;9414070003
5712;ABQPJ1091B;C M FURNITURE  PROP  RISHI JAISWAL;710200301000111;VIJ-V N MARG ALLHABAD;631A/815A BAHADURGANJ;ALLD;ALLAHABAD  ;UTTAR PRADESH;71020;211001;9415305577
5999;ABOPT1378B;SATISH KUMAR;710306041000008;VIJ-BAREILLY U P;QILA;GRAIN MARKET;BAREILLY,U P         ;UTTAR PRADESH;71030;243001;9897903429
5999;ABOPF0299D;GOOD LUCK COMPUTER PRO.MOHD. FAISAL;711400301000308;VIJ-GORAKHPUR U P;AMRUTANI BAGH RASOOLPUR;GORAKHNATH GORAKHPUR;GORAKHPUR,U P        ;UTTAR PRADESH;71140;273015;9335316038
8299;AADPQ9296M;THE SPEED COACHING. PROP. QAMRUZZAMA;712200301000683;VIJ-BELI ROAD ALLAHABAD;23/14A/2B A BELI ROAD;SADAR ALLAHABAD;ALLAHABAD  ;UTTAR PRADESH;71220;211002;8601845616
5072;ACLPG6498D;KESARWANI & BROS.;712207711000020;VIJ-BELI ROAD ALLAHABAD;21,UNIVERSITY ROAD  ALLAHABAD;ALLAHABAD;ALLAHABAD  ;UTTAR PRADESH;71220;211002;9335152278
5044;AJVPS4019D;MANJUSHA COPIERS PROP-MANJU SHARMA;712300300001598;VIJ-R S M NAGAR LUCKNOW;C-1003,INDIRA NAGAR;LUCKNOW.;LUCKNOW    ;UTTAR PRADESH;71230;226016;9956002702
5651;AASPR3625G;RUNGTA VASTRALAYA;712300301000300;VIJ-R S M NAGAR LUCKNOW;SHOP NO-18 BHOOTNATH MARKET INDIRA NAGAR;LUCKNOW;LUCKNOW    ;UTTAR PRADESH;71230;226016;9415767157
8099;ADVPB3437A;SUNIL KUMAR BIRJU;712300371000001;VIJ-R S M NAGAR LUCKNOW;DAWADMI GENFRAL HOSPITAL MOHD DAWADMI RIYAD R;KINGDOM OF SAUDI ARABIA;RIYADH;SAUDI ARABIA;71230;11536;531864151
5944;AAIFG6827B;GOEL JEWELLERS , PROP-RAKESH KU AGARWAL;712306041000002;VIJ-R S M NAGAR LUCKNOW;S-102, SHOP NO. B1, B2 & B3, AGARWAL MARKET;BHOOTHNATH MARKET, INDIRA NAGAR, LUCKNOW;LUCKNOW    ;UTTAR PRADESH;71230;226016;9935509932
5072;AKEPA3711C;SRI BALAJI TRADERS PRO.J.K. AGARWAL;713706211000019;VIJ-VISHALKHAND LUCKNOW;5/26,VISHAL KHAND   GOMTI NAGAR;LUCKNOW;LUCKNOW    ;UTTAR PRADESH;71370;226010;9554464642
5311;ABCDE1234;PANCHOO GOPAL KARMOKAR GRANDSON;713900300000043;VIJ-NEHRU NAGAR KANPUR;117/Q/75-B SHARDA NAGAR INDRAPURI NAVEEN;NAGAR KANPUR;KANPUR     ;UTTAR PRADESH;71390;208025;9336128600
5311;ABYPG3674K;GUPTA ENTERPRISES;714207711000012;VIJ-    7142 - HARIDWAR;M/S GUPTA ENTERPRISES;KAATEHERA BAZAR JAWALAPUR;HARIDWAR   ;UTTARANCHAL;71420;249407;9837103389
5699;AVNPC1500B;GANESH HANDLOOM;715500301000407;VIJ-KIDWAI NAGAR-KANPUR;SHOP NO 23 CHALIS DUKAN KIDWAI NAGAR KANPUR;UP;KANPUR     ;UTTAR PRADESH;71550;208011;9450329136
5065;BUPPK3602L;R.K. ELECTRICALS;716600301000058;VIJ-VIKAS NAGAR,LUCKNOW;RING ROAD CHAURAHA;KHURRAM NAGAR;LUCKNOW    ;UTTAR PRADESH;71660;226022;9452677229
5912;AZWPS3302G;BUDAUN MEDICAL STORE;716700301000232;VIJ-BUDAUN,UTTARAPRADESH;LABELA CHOWK;BUDAUN;BUDAUN,UTTARAPRADESH;UTTAR PRADESH;71670;243601;9359844439
5311;AAVFR3378R;RISHAANJAL ENTERPRISES;717306211000034;VIJ-ROORKEE;SHOP NO 12-13 CITY PRIDE COMPLEX;NEAR PREM MANDIR 10,CIVIL LINES ROORKEE;ROORKEE    ;UTTARANCHAL;71730;247667;8439102121
5713;ALGPK8562L;RAJESH HOISERY & READYMADE;719800301000047;VIJ-HANDIA,ALLAHABAD;WARD NO 7 SABJI MANDI TOWN AREA;HANDIA;ALLAHABAD  ;UTTAR PRADESH;71980;221503;9935826548
8062;AAQFA6399A;ANAND HOSPITAL;719900301000001;VIJ-AZAMGARH,UP;MUKERIGANJ;AZAMGARH;AZAMGARH   ;UTTAR PRADESH;71990;276001;8953855555
8099;BDJPR4462G;SHREE BHAGWAT MEDI CARE;719900301000152;VIJ-AZAMGARH,UP;PROP  SANCHITA RANI ASIFGANJ  SADAR AZAMGARH;AZAMGARH;AZAMGARH   ;UTTAR PRADESH;71990;276001;7376442263
5661;AACFL2192C;LEATHERS PRIDE;719906041000001;VIJ-AZAMGARH,UP;LEATHERS PRIDE MUKERIGANJ, SADAR; AZAMGARH;AZAMGARH   ;UTTAR PRADESH;71990;276001;9415207902
5944;AFSPP7599C;SRI MAHALAXMI STORES;720300301000514;VIJ--VIJ-BURRABAZAR KOLKATA;9 JAGMOHAN MULLICK LANE, BURRA BAZAR;KOLKATA;KOLKATA    ;WEST BENGAL;72030;700007;9674380483
5651;ALAPD1609H;COMFORT WORLD;723000301001496;VIJ-RAJARHAT, KOLKATA;SANJUKTA DUTTA GUHA THAKURTA,PLOT:AG-1,BL-AG;ACTION AREA-1A,STRT45,64,ID4,EDEN SHOP 1ST FL;KOLKATA    ;WEST BENGAL;72300;700159;9836552507
5732;AEVPC7475E;CYBERIA;725306041000002;VIJ-RAIGANJ;681/628, LINEBAZAR;RAIGANJ;UTTAR DINAJPUR;WEST BENGAL;72530;733134;9434144727
5999;AQSPB5133F;JAY AMBE FRUIT CENTER;731000301000744;VIJ-JAMNAGAR GUJARAT;SHOP NO 3 NR BADMINTON HOUSE OPP JOGGARS PARK;JAMNAGAR;JAMNAGAR,GUJARAT     ;GUJARAT;73100;361008;9512706053
5999;AWPPB8118H;MILAN AGRO CENTER;731906041000015;VIJ-JAMKHAMBHALIA GUJARAT;POST OFFICE ROAD;JAM-KHAMBHALIA;JAMKHAMBHALIA,GUJARAT;GUJARAT;73190;361305;9724489446
5231;AAAFH5512L;HUSAMI GLASS MERCHANT;732100301000098;VIJ-SARASPUR AHMEDABAD;1274 SAIFEE SOCIETY OPP. BHAGWATINAGAR;SARASPUR AHMEDABAD;AHMEDABAD  ;GUJARAT;73210;380018;9825441656
5999;ATWPS7034F;NEW GUJARAT BATTERIES;732106021000002;VIJ-SARASPUR AHMEDABAD;470/20,NR SULAMANIAROZA,NUTAN MILL,;SARASPUR, AHMEDABAD;AHMEDABAD  ;GUJARAT;73210;380018;9974737127
5971;BUFPS3547C;INTERIOR HOME DECOR;732306211000004;VIJ-ANAND GUJARAT;61 SARDAR GUNJ ROAD;OPP POST OFFICE;ANAND,GUJARAT        ;GUJARAT;73230;388001;9033322977
5732;AMBPT5162B;JAY SHANKAR MOBILE HUB;732400301000618;VIJ-GURUKUL AHMEDABAD;A.F.4 SURYA COMPLEX;MEMNAGAR ROAD;AHMEDABAD  ;GUJARAT;73240;380052;9879883992
5732;AZRPR9692R;SHREE PASHUPATI NATH ELECTRIC CORPORATION;732500301000536;VIJ-ANKLESHWAR GUJARAT;B-303 SAGAR RESIDENCY BHADKODARA;TA ANKLESHWAR;ANKLESHWAR,GUJARAT   ;GUJARAT;73250;393001;9723542357
5211;ADZPR0352G;SHREE VIJAY SALES;732506041000002;VIJ-ANKLESHWAR GUJARAT;PLOT  NO 1101/1/B   OPP HOTEL SAURASTRA;LITTLE HART CHOKDI GIDC,   ANKLESHWAR-2;ANKLESHWAR,GUJARAT   ;GUJARAT;73250;393002;9824111344
5812;ACXPS5900Q;HOTEL RADHA KRISHNA;734300301000156;VIJ-VIJ - MAJURA GATE,SURAT;2/1932 GROUND FLOOR SHOP NO 1/2;HIMANI BUILDING MAJURA GATE RING ROAD;SURAT,GUJARAT        ;GUJARAT;73430;395002;9825119472
7298;ANIPP1913C;REVH SALON SPA;734707711000003;VIJ-NADIAD;ABOVE AXIS BANK  OPP MAHAGUJARAT HOSPITAL;COLLEGE ROAD NADIAD;NADIAD;GUJARAT;73470;387001;9998202170
5732;BPPPS5573F;S.R.COMMUNICATION;734900301000374;VIJ-VASTRAL;B/1377 INDIRA PARK SOCIETY, ADINATHNAGAR,;ODHAV,AHMEDABAD;AHMEDABAD  ;GUJARAT;73490;382415;9898143884
5655;AMXPK0534G;NARODA PAGARKHA BAZAR AND RAJA FASHION;734900301000738;VIJ-VASTRAL;SHREE RAMTIRTH AYODHA OWN ASSO, RADHE HOSPITA;AND ICCU, NEAR BOI ,0, DEHGAM ROAD,NARODA;AHMEDABAD  ;GUJARAT;73490;380025;9228387646
5732;BPBPK3906A;MADHUR ELECTRONICS;734906041000013;VIJ-VASTRAL;D/PLAZA-GF/6,PUSHP BUSINESS CAMPUS,NR VASTRAL;CIRCLE,SVP RINGROAD,VASTRAL,AHMEDABAD;AHMEDABAD  ;GUJARAT;73490;382418;9662209571
5912;AACHD2641C;HELI MEDICAL STORE;735100301000195;VIJ-GOTA-SAYONA CITY;2,NARAYAN BUNGLOW PART-II;NR PRASANG PARTY PLOT ,GOTA;AHMEDABAD  ;GUJARAT;73510;382481;9998498127
5976;AICPT6835E;BODY MASTER MY FITNESS HUB;735100301000196;VIJ-GOTA-SAYONA CITY;20/31 SAHAYOG RO HOUSE & SHOPPING CENTRE;PRABHAT CHOWK, GHATLODIYA;GOTA-SAYONA CITY;GUJARAT;73510;380061;7041587195
8062;BDJPP6667F;SADBHAV CHILDREN HOSIPTAL;737800301000088;VIJ-NAVA NARODA;3RD FLOOR, AVANI SQUARE,;NR, MANOHAR VILLA CHAR RASTA, NIKOL, NAROD R;AHMEDABAD  ;GUJARAT;73780;382350;9904050044
5999;ACYPL5731D;AMEE REFRIGERATION SALES & SERVICE;738000301000037;VIJ-BILIMORA,GUJARAT;12 DHRUVI MALL NEAR HONEST TRADING CO;BILIMORA TAL GANDEVI NAVSARI;BILIMORA,GUJARAT;GUJARAT;73800;396321;9824780949
8299;AAMCA2829C;AVIVOICE  EDUTECH PVT LTD;740100301000275;VIJ-BALASORE ORISSA;REPRESENTED BY MD-ROJLIN KAR,DR-KRISHNA RAJPU;F M COLLEGE ROAD,MALLIKASPUR,BALASORE;BALASORE,ORISSA      ;ORISSA ;74010;756003;7873787327
5732;EDCPK6340A;NUTAN ENTERPRISES;740106021000029;VIJ-BALASORE ORISSA;CINEMA BAZAR,  MOTIGANJ;BALASORE;BALASORE,ORISSA      ;ORISSA ;74010;756003;9040070596
5065;AATFP3598H;P. K. LIGHTS;740706361000001;VIJ-PURI ORISSA;83/3.83/4 BAPUJI NAGAR;BHUBANESWAR;BHUBANESHWAR,ORISSA  ;ORISSA ;74070;751009;9437507194
5732;AEGPN8802B;MOHAMMAD NAWAZ;741106211000002;VIJ-SUNDERGARH BRANCH;AT-TALSHANKARA, NEAR MISSION CHOWK;SUNDARGARH;SUNDERGARH;ORISSA ;74110;770001;8895152669
5311;AHOPD2572K;KALANDI CHARAN DASH;741500301000002;VIJ-NILADRI VIHAR,ODISHA;S2/378;NILADRI VIHAR;BHUBANESHWAR,ORISSA  ;ORISSA ;74150;751021;9439732378
5311;AFWPB0071M;RAM SAROOP YASHPAL BANSAL PROP YASH PAL BANSAL;751600301000018;VIJ-KHARAR PUNJAB;H. NO. 2618 DUSHEHRA GROUND;WARD NO 10 KHARAR;KHARAR,PUNJAB;PUNJAB ;75160;140301;9878541824
5712;AGNPK2150N;MALA FURNITURE HOUSE PROP MUKESH KUMAR;751600301000211;VIJ-KHARAR PUNJAB;NEAR JTPL CITY LANDRAN ROAD SEC 115;KHARAR SAS NAGAR PUNJAB;KHARAR,PUNJAB;PUNJAB ;75160;140301;9814780003
5944;ABCPK2581M;ARIHANT LAL PARVESH JAIN JEWELLERS;751600301000253;VIJ-KHARAR PUNJAB;C/O PARVESH KUMAR, UPPER BAZAR;KHARAR;KHARAR,PUNJAB;PUNJAB ;75160;140301;9815431235
8062;AJCPK3884D;HITECH SCAN CENTRE;754300301000061;VIJ-JAGRAON,PUNJAB;PROP GULJEET KAUR RAIKOT ROAD AGWAR GUJJRAN;ADJACENT TO CAREWELL HOSPITAL JAGRAON;JAGRAON,PUNJAB;PUNJAB ;75430;142026;9815000199
5947;DYVPS2534H;SIMRAN BANGLE STORE;754300301000102;VIJ-JAGRAON,PUNJAB;SIMRAN BANGLE STORE MISSERPURA BAZAR NEAR;MOTI DI HATTI JAGRAON;JAGRAON,PUNJAB;PUNJAB ;75430;142026;9855116292
5651;CIPPS4253Q;SARNA COLLECTION;754300301000105;VIJ-JAGRAON,PUNJAB;SARNA COLLECTION ANARKALI BAZAR NEAR ISHWAR;HALWAI CHOWK JAGRAON;JAGRAON,PUNJAB;PUNJAB ;75430;142026;9888393133
5732;ABDPT2557K;DISHA LIGHTS;760306041000022;VIJ-INDORE;8;NEW SIYAGANJ, FIRST FLOOR;INDORE,MADHYA PRADESH;MADHYA PRADESH;76030;452007;9303230888
5651;AADFN2323A;NEXT MARKETING(PARTNERSHIP);760400300001714;VIJ-JABALPUR MADHYA PRADESH;NAUDRA BRIDGE       HARPREET COMPLEX;1970,NAPIER TOWN    JABALPUR;JABALPUR,MADHYA PRADESH        ;MADHYA PRADESH;76040;482001;8989498686
5533;ADKPL0315J;NILKANTH RESTOURANT;760800301000103;VIJ- BILASPUR,CHHATTISGARH;NIKANTH RESTOURANT;PRATAP TALKIES;BILASPUR   ;CHHATTISGARH;76080;495001;9827981491
5699;AJLPR8475Q;VIJAY BOOT HOUSE;760800301000143;VIJ- BILASPUR,CHHATTISGARH;PRATAP CHOWK;BILASPUR, CG;BILASPUR   ;CHHATTISGARH;76080;495001;9303333876
4722;AIEPY5575E;MAA TRAVELS;760800301000283;VIJ- BILASPUR,CHHATTISGARH;WARD NO - 3;MANGALA CHOWK BILASPUR;BILASPUR   ;CHHATTISGARH;76080;495001;9300672005
5946;AGGPT2606R;KOSS SALES CORPORATION;760800301000296;VIJ- BILASPUR,CHHATTISGARH;PLOT NO-10 FIRST FLOOR NARMADA NAGAR;RING ROAD -2 BILASPUR;BILASPUR   ;CHHATTISGARH;76080;495001;9406394810
5944;ABCDE1234;LOVELY LOOK JEWELLERY;760800301000421;VIJ- BILASPUR,CHHATTISGARH;PROP- MOHAN LAL JASWANI  NEAR DEVKINANDAN;SCHOOL PRATAP TALKIES CHOWK;BILASPUR   ;CHHATTISGARH;76080;495001;9981444785
5139;AARPW5540L;S S SHOES;760800301000542;VIJ- BILASPUR,CHHATTISGARH;S S SHOES  COMPANY GARDEN;NEAR PRESS CLUB BILASPUR;BILASPUR   ;CHHATTISGARH;76080;495001;9981800000
5311;AMCPA7770R;MAKEUP WORLD PROP-SRI RAJ AYLANI;760807711000003;VIJ- BILASPUR,CHHATTISGARH;NEAR METRO STUDIO;PURANA SARKANDA PUL,BILASPUR;BILASPUR   ;CHHATTISGARH;76080;495001;9993599667
5732;DVDPS0054K;SETH ENTERPRISES;761000301000300;VIJ-SAGAR MADHYA PRADESH;JAMA COMPLEX KATRA BAZAR;NAMAK MANDI SAGAR;SAGAR, MADHYA PRADESH;MADHYA PRADESH;76100;470002;9329430104
5999;BBLPS5019N;RAGHAV KRISHI KENDRA;761506041000017;VIJ-REWA;RAGHAV KRISHI KENDRA.CHHATRAPATI SHIVAJIVILL-;MARKET. VIKRAM BRIDGE ROAD. REWA. MPREWA.MP;REWA;MADHYA PRADESH;76150;486001;9300686892
5511;AESPP0457L;MAA SARVESHWARI AUTOMOBILES;763206211000003;VIJ-BHATAPARA,CHATTISHGARH;PROP- CHITRA SEN PUROHIT, LIMTARA;NEAR PETROL PUMP, DIST-BALODABAZAR;BHATAPARA,CHATTISHGARH;CHHATTISGARH;76320;493118;9301361155
5072;ABDFM2188F;ARHAM PLYWOOD AND FITTINGS;763506211000005;VIJ-DURG;BESIDES PURANA GANJMANDI;GANJPARA, DURG;DURG       ;CHHATTISGARH;76350;491001;9713400072
5311;ABYPG0273C;ANNAPURNA KIRANA STORES  PROP- SURENDRA GOUR;764106041000001;VIJ-HOSHANGABAD;NEW FOUZDAR COLONY RASULIYA;HOSHANGABAD;HOSHANGABAD;MADHYA PRADESH;76410;461001;9753694446
5311;ATUPS3652B;MEHAR PROTEEN;764800301000193;VIJ - KOLAR ROAD,BHOPAL;SHOP NO 07 ABHINAV ACHED;BAVADIYA KALA BHOPAL;BHOPAL,MADHYA PRADESH;MADHYA PRADESH;76480;462042;9425378500
5999;AJLPM3168R;NATWAR LAL & BROTHERS;765300301000196;VIJ-PALI,KORBA;PROP.-HARISH KUMAR MARU;MAIN MARKET,PALI;KORBA      ;CHHATTISGARH;66040;495449;8103048800
5944;ALLPR1085P;GEETA JEWELLERS;765500301000013;VIJ-BEMETARA BRANCH;SADAR ROAD BEMETARA;BEMETARA;BEMETARA,CHATTISGARH;CHHATTISGARH;76550;491335;9752514211
5311;AQPPA7619C;HIMANSHU AGENCY;766900301000061;VIJ-CHIRIMIRI,CHATTISGARH;WARD NO 30 NEAR POLICE STATION BADA BAZAR;CHIRIMIRI;CHIRIMIRI,CHATTISGARH;CHHATTISGARH;76690;497449;9329225007
5732;AMXPB1574D;POOJA MOBILE SHOP;766906211000005;VIJ-CHIRIMIRI,CHATTISGARH;WARD NO 29 MAIN ROAD;BADA BAZAR CHIRMIRI;CHIRIMIRI,CHATTISGARH;CHHATTISGARH;76690;497449;7869966558
5998;AMXPB1573E;RUPESH BEDI;766906211000006;VIJ-CHIRIMIRI,CHATTISGARH;WARD NO 29 MAIN ROAD BADA BAZAR;CHIRMIRI;CHIRIMIRI,CHATTISGARH;CHHATTISGARH;76690;497449;9009994850
5651;AWQPD2688F;GANGASHRI TEXTILES;767500301000054;VIJ-BALOD CHHATTISGARH;SHITLA MANDIR ROAD  NEW BUS STAND;BALOD;BALOD,CHHATTISGARH;CHHATTISGARH;76750;491226;9981928171
5651;AQZPT9696C;MAA BAMLESHWARI VASTRALAYA AND SHRIGARIKA;767506211000001;VIJ-BALOD CHHATTISGARH;MADHU CHOWK, NEAR STATE BANK OF INDIA;KACHAHARI ROAD BALOD;BALOD,CHHATTISGARH;CHHATTISGARH;76750;491226;9770004925
8299;AAATB7331F;B.S.S. PRANAVANANDA  ACADEMY;769200301000003;VIJ-RAIPUR - NEW PURENA;18. KASYA ROAD      GORAKHPUR;GKP;GORAKHPUR,U P        ;UTTAR PRADESH;76920;273001;8871012220
5411;ABVPJ5089Q;PRADIP STORE;800100300003467;VIJ-FANCY BAZAR GUWAHATI;OPP.MARWARI HOSPITALNEAR SANI MANDIR;H.B.ROAD            FANCY BAZAR,GUWAHATI;GUWAHATI   ;ASSAM ;80010;781001;9864014824
5942;ACFPH3743Q;BIDYA BHARATI;800200301000151;VIJ-DIBRUGARH ASSAM;J LANE, WEST MILANNAGAR, HOUSE NO. 32;PO C.R.BUILDING;DIBRUGARH,ASSAM      ;ASSAM ;80020;786003;9957019289
8099;AHZPM0881D;LAXMI MEDICAL;800700301000101;VIJ-GOLAGHAT ASSAM;HOSPITAL ROAD;P.O: GOLAGHAT;GOLAGHAT,ASSAM       ;ASSAM ;80070;785621;9435054360
5944;AJGPB6780M;BANIK JEWELLARY;801000301000397;VIJ-MALIGAON - GUWAHATI;PROP: DIPAK BANIK;BARA BAZAR, PANDU;GUWAHATI   ;ASSAM ;80100;781012;9954646667
5172;APVPA8574M;NAGARJAN SERVICE STATION;810200301000016;VIJ-DIMAPUR NAGALAND;NEAR HALF NAGARJAN;JUNCTION;DIMAPUR,NAGALAND     ;NAGALAND;81020;797112;9436263179
5511;BWOPS5174E;FAUJDAAR BUILDERS AND MOVERS;830500301000737;VIJ-BALLABGARH HARYANA;SHOP NO 20 DAULAT COLONY UNCHA GAON;BALLABGARH;BALLABGARH,HARYANA   ;HARYANA;83050;121004;8800622888
5211;AATPI9487L;MAA BHAGWATI TRADERS PROP. EKRAM;832000301000097;VIJ-MANESAR; KASAN ROADVILLAGE MANESAR;POST OFFICE MANESAR DISTRICT GURHAON (HARYANA;MANESAR,HARYANA;HARYANA;83200;122050;8750300091
5200;ANZPG7523J;SHREE KRISHNA READYMADE GARMENTS AND BOOT HOUSE;832000301000155;VIJ-MANESAR;SHRI KRISHNA READYMADE GARMENTS & BOOT HOUSE;KASAN ROAD MANESAR GURGAON HARYANA;MANESAR,HARYANA;HARYANA;83200;122051;9813311783
5691;CRFPP5285E;VIDHI SAREE SHOWROOM;832000301000227;VIJ-MANESAR;SHOP NO 25 KASHAN ROAD;VILL MANESAR GURGAON;MANESAR,HARYANA;HARYANA;83200;122051;9999848576
5655;BWIPS3538J;AMRICAN TAILORS;834100301000001;VIJ-RATIA;PROP- BALJIT SINGH RAVIDAS MARKET MAIN BAZAR;NEAR AGGARWAL DHARAMSHALA RATIA DISTT- FATEHA;FATEHABAD;HARYANA;83410;125051;9466471384
5533;AAAFF3882D;FRANKS-CHINESE-RESTAURANT;840500300001473;VIJ-JAMSHEDPUR JHARKHAND;NO-18-M-ROAD        BISTUPUR;JAMSHEDPUR;JAMSHEDPUR,JHARKHAND ;JHARKHAND ;84050;831005;7209910362
5944;AHBPG5357N;RAJ LAXMI JEMS & JEWELLERS;840600301000110;VIJ-MUZAFFARPUR BIHAR;GARIB ASTHAN ROAD;MUZAFFARPUR;MUZAFFARPUR,BIHAR    ;BIHAR;84060;842001;9835094112
4900;AAPFG4665C;GOLDEN GAS AGENCY;841000301000062;VIJ-HAZARIBAGH,JHARKHAND;PUNCH MANDIR CHOWK;HAZARIBAGH;HAZARIBAGH,JHARKHAND;JHARKHAND ;84100;825301;9709088855
5699;ABBPA8288L;MUNAKA CLOTH  STORE;841000301000311;VIJ-HAZARIBAGH,JHARKHAND;302  AKBAR  GALI  BEHIND MOHAN   CINEMA;PO HAZARIBAGH PS  SADAR  HAZARIBAGH;HAZARIBAGH,JHARKHAND;JHARKHAND ;84100;825301;9835312107
5065;AAQFB4170Q;BELA MART;841506361000001;VIJ-SAMASTIPUR;BELA KUNJ,INFRONT OF T.ACADEMY,KASHIPUR;SAMASTIPUR;SAMASTIPUR, BIHAR;BIHAR;84150;848101;9031152876
5511;AINPB5675R;RIYA AUTO SPARES;843406211000001;VIJ-DEOGHAR BRANCH;RIYA AUTO SPARES CASTAIR TOWN WARD NO 34;BAJLA CHOWK DEOGHAR 814112;DEOGHAR JHARKHAND;JHARKHAND ;84340;814112;9431059641
7298;CBIPS7289C;PATANJALI  AROGAYA  KENDRA;843806041000003;VIJ-ARRAH BIHAR;PROP-DEVENDRA KUMAR SINHA, CLUB ROAD,;NEAR DM RESIDENCE ARRAH, BHOJPUR;ARRAH , BIHAR        ;BIHAR;84380;802301;9934639648
5651;AEWPJ1995D;RAJESH STORE;844300301000055;VIJ-PURNIYA PATNA;PROP.CHHATER SINGH JAIN,LAKHAN CHOWK;BHATTA BAJAR,PURNEA;PURNIA;BIHAR;84430;854301;9934259061
5251;ABTPD7620H;BISWAJIT DUTTA;870106041000027;VIJ-AGARTHALA TRIPURA;SHIB NAGAR, MASJID ROAD;AGARTALA;AGARTHALA,TRIPURA    ;TRIPURA;87010;799001;9436121249
7622;ANKPA1075A; JOMEEN ENTERPRISE;880400301000419;VIJ-NAHARLAGUN,ARUNACHALPRADES;C SECTOR HOTEL KOSING, BUILDING OPP PETROL PU;PAPUM PARE;NAHARLAGUN,ARUNACHAL PRADESH;ARUNACHAL PRADESH;88040;791110;9402275097
5712;AANPZ3089K;WOODIES FURNITURE;880400301000493;VIJ-NAHARLAGUN,ARUNACHALPRADES;PROP YAGI ZIRDO  BARAPANI MARKET;NAHARLAGUN;NAHARLAGUN,ARUNACHAL PRADESH;ARUNACHAL PRADESH;88040;791110;9612116583
5533;BWUPP7744K;HOTEL RAJHANS;880400301000524;VIJ-NAHARLAGUN,ARUNACHALPRADES;BARAPANI BAZAR, NAHARLAGUN;PAPUM PARE;NAHARLAGUN,ARUNACHAL PRADESH;ARUNACHAL PRADESH;88040;791110;8414925558
