RemitterIFSCCode,RecipientIFSCCode,TxnValue,TxnVolume,TxnSubCategoryCode,others
,SBIN0013427,1000.0,1,1,,
,CITI0000004,4900.0,1,1,,
,VIJB0001085,2943.0,1,1,,
,VIJB0004174,1500.0,2,1,,
,BKID0004964,950.0,1,1,,RemitterIFSCCode,RecipientIFSCCode,TxnValue,TxnVolume,TxnSubCategoryCode,others
,SBIN0013427,1000.0,1,1,,
,CITI0000004,4900.0,1,1,,
,VIJB0001085,2943.0,1,1,,
,VIJB0004174,1500.0,2,1,,
,BKID0004964,950.0,1,1,,RemitterIFSCCode,RecipientIFSCCode,TxnValue,TxnVolume,TxnSubCategoryCode,others
,SBIN0013427,1000.0,1,1,,
,CITI0000004,4900.0,1,1,,
,VIJB0001085,2943.0,1,1,,
,VIJB0004174,1500.0,2,1,,
,BKID0004964,950.0,1,1,,RemitterIFSCCode,RecipientIFSCCode,TxnValue,TxnVolume,TxnSubCategoryCode,others
,SBIN0013427,1000.0,1,1,,
,CITI0000004,4900.0,1,1,,
,VIJB0001085,2943.0,1,1,,
,VIJB0004174,1500.0,2,1,,
,BKID0004964,950.0,1,1,,RemitterIFSCCode,RecipientIFSCCode,TxnValue,TxnVolume,TxnSubCategoryCode,others
,SBIN0013427,1000.0,1,1,,
,CITI0000004,4900.0,1,1,,
,VIJB0001085,2943.0,1,1,,
,VIJB0004174,1500.0,2,1,,
,BKID0004964,950.0,1,1,,RemitterIFSCCode,RecipientIFSCCode,TxnValue,TxnVolume,TxnSubCategoryCode,others
,SBIN0013427,1000.0,1,1,,
,CITI0000004,4900.0,1,1,,
,VIJB0001085,2943.0,1,1,,
,VIJB0004174,1500.0,2,1,,
,BKID0004964,950.0,1,1,,RemitterIFSCCode,RecipientIFSCCode,TxnValue,TxnVolume,TxnSubCategoryCode,others
,SBIN0013427,1000.0,1,1,,
,CITI0000004,4900.0,1,1,,
,VIJB0001085,2943.0,1,1,,
,VIJB0004174,1500.0,2,1,,
,BKID0004964,950.0,1,1,,RemitterIFSCCode,RecipientIFSCCode,TxnValue,TxnVolume,TxnSubCategoryCode,others
,SBIN0013427,1000.0,1,1,,
,CITI0000004,4900.0,1,1,,
,VIJB0001085,2943.0,1,1,,
,VIJB0004174,1500.0,2,1,,
,BKID0004964,950.0,1,1,,RemitterIFSCCode,RecipientIFSCCode,TxnValue,TxnVolume,TxnSubCategoryCode,others
,SBIN0013427,1000.0,1,1,,
,CITI0000004,4900.0,1,1,,
,VIJB0001085,2943.0,1,1,,
,VIJB0004174,1500.0,2,1,,
,BKID0004964,950.0,1,1,,RemitterIFSCCode,RecipientIFSCCode,TxnValue,TxnVolume,TxnSubCategoryCode,others
,SBIN0013427,1000.0,1,1,,
,CITI0000004,4900.0,1,1,,
,VIJB0001085,2943.0,1,1,,
,VIJB0004174,1500.0,2,1,,
,BKID0004964,950.0,1,1,,RemitterIFSCCode,RecipientIFSCCode,TxnValue,TxnVolume,TxnSubCategoryCode,others
,SBIN0013427,1000.0,1,1,,
,CITI0000004,4900.0,1,1,,
,VIJB0001085,2943.0,1,1,,
,VIJB0004174,1500.0,2,1,,
,BKID0004964,950.0,1,1,,RemitterIFSCCode,RecipientIFSCCode,TxnValue,TxnVolume,TxnSubCategoryCode,others
,SBIN0013427,1000.0,1,1,,
,CITI0000004,4900.0,1,1,,
,VIJB0001085,2943.0,1,1,,
,VIJB0004174,1500.0,2,1,,
,BKID0004964,950.0,1,1,,RemitterIFSCCode,RecipientIFSCCode,TxnValue,TxnVolume,TxnSubCategoryCode,others
,SBIN0013427,1000.0,1,1,,
,CITI0000004,4900.0,1,1,,
,VIJB0001085,2943.0,1,1,,
,VIJB0004174,1500.0,2,1,,
,BKID0004964,950.0,1,1,,RemitterIFSCCode,RecipientIFSCCode,TxnValue,TxnVolume,TxnSubCategoryCode,others
,SBIN0013427,1000.0,1,1,,
,CITI0000004,4900.0,1,1,,
,VIJB0001085,2943.0,1,1,,
,VIJB0004174,1500.0,2,1,,
,BKID0004964,950.0,1,1,,RemitterIFSCCode,RecipientIFSCCode,TxnValue,TxnVolume,TxnSubCategoryCode,others
,SBIN0013427,1000.0,1,1,,
,CITI0000004,4900.0,1,1,,
,VIJB0001085,2943.0,1,1,,
,VIJB0004174,1500.0,2,1,,
,BKID0004964,950.0,1,1,,RemitterIFSCCode,RecipientIFSCCode,TxnValue,TxnVolume,TxnSubCategoryCode,others
,SBIN0013427,1000.0,1,1,,
,CITI0000004,4900.0,1,1,,
,VIJB0001085,2943.0,1,1,,
,VIJB0004174,1500.0,2,1,,
,BKID0004964,950.0,1,1,,RemitterIFSCCode,RecipientIFSCCode,TxnValue,TxnVolume,TxnSubCategoryCode,others
,SBIN0013427,1000.0,1,1,,
,CITI0000004,4900.0,1,1,,
,VIJB0001085,2943.0,1,1,,
,VIJB0004174,1500.0,2,1,,
,BKID0004964,950.0,1,1,,RemitterIFSCCode,RecipientIFSCCode,TxnValue,TxnVolume,TxnSubCategoryCode,others
,SBIN0013427,1000.0,1,1,,
,CITI0000004,4900.0,1,1,,
,VIJB0001085,2943.0,1,1,,
,VIJB0004174,1500.0,2,1,,
,BKID0004964,950.0,1,1,,RemitterIFSCCode,RecipientIFSCCode,TxnValue,TxnVolume,TxnSubCategoryCode,others
,SBIN0013427,1000.0,1,1,,
,CITI0000004,4900.0,1,1,,
,VIJB0001085,2943.0,1,1,,
,VIJB0004174,1500.0,2,1,,
,BKID0004964,950.0,1,1,,RemitterIFSCCode,RecipientIFSCCode,TxnValue,TxnVolume,TxnSubCategoryCode,others
,SBIN0013427,1000.0,1,1,,
,CITI0000004,4900.0,1,1,,
,VIJB0001085,2943.0,1,1,,
,VIJB0004174,1500.0,2,1,,
,BKID0004964,950.0,1,1,,RemitterIFSCCode,RecipientIFSCCode,TxnValue,TxnVolume,TxnSubCategoryCode,others
,SBIN0013427,1000.0,1,1,,
,CITI0000004,4900.0,1,1,,
,VIJB0001085,2943.0,1,1,,
,VIJB0004174,1500.0,2,1,,
,BKID0004964,950.0,1,1,,RemitterIFSCCode,RecipientIFSCCode,TxnValue,TxnVolume,TxnSubCategoryCode,others
,SBIN0013427,1000.0,1,1,,
,CITI0000004,4900.0,1,1,,
,VIJB0001085,2943.0,1,1,,
,VIJB0004174,1500.0,2,1,,
,BKID0004964,950.0,1,1,,RemitterIFSCCode,RecipientIFSCCode,TxnValue,TxnVolume,TxnSubCategoryCode,others
,SBIN0013427,1000.0,1,1,,
,CITI0000004,4900.0,1,1,,
,VIJB0001085,2943.0,1,1,,
,VIJB0004174,1500.0,2,1,,
,BKID0004964,950.0,1,1,,RemitterIFSCCode,RecipientIFSCCode,TxnValue,TxnVolume,TxnSubCategoryCode,others
,SBIN0013427,1000.0,1,1,,
,CITI0000004,4900.0,1,1,,
,VIJB0001085,2943.0,1,1,,
,VIJB0004174,1500.0,2,1,,
,BKID0004964,950.0,1,1,,RemitterIFSCCode,RecipientIFSCCode,TxnValue,TxnVolume,TxnSubCategoryCode,others
,SBIN0013427,1000.0,1,1,,
,CITI0000004,4900.0,1,1,,
,VIJB0001085,2943.0,1,1,,
,VIJB0004174,1500.0,2,1,,
,BKID0004964,950.0,1,1,,RemitterIFSCCode,RecipientIFSCCode,TxnValue,TxnVolume,TxnSubCategoryCode,others
,SBIN0013427,1000.0,1,1,,
,CITI0000004,4900.0,1,1,,
,VIJB0001085,2943.0,1,1,,
,VIJB0004174,1500.0,2,1,,
,BKID0004964,950.0,1,1,,RemitterIFSCCode,RecipientIFSCCode,TxnValue,TxnVolume,TxnSubCategoryCode,others
,SBIN0013427,1000.0,1,1,,
,CITI0000004,4900.0,1,1,,
,VIJB0001085,2943.0,1,1,,
,VIJB0004174,1500.0,2,1,,
,BKID0004964,950.0,1,1,,RemitterIFSCCode,RecipientIFSCCode,TxnValue,TxnVolume,TxnSubCategoryCode,others
,SBIN0013427,1000.0,1,1,,
,CITI0000004,4900.0,1,1,,
,VIJB0001085,2943.0,1,1,,
,VIJB0004174,1500.0,2,1,,
,BKID0004964,950.0,1,1,,RemitterIFSCCode,RecipientIFSCCode,TxnValue,TxnVolume,TxnSubCategoryCode,others
,SBIN0013427,1000.0,1,1,,
,CITI0000004,4900.0,1,1,,
,VIJB0001085,2943.0,1,1,,
,VIJB0004174,1500.0,2,1,,
,BKID0004964,950.0,1,1,,RemitterIFSCCode,RecipientIFSCCode,TxnValue,TxnVolume,TxnSubCategoryCode,others
,SBIN0013427,1000.0,1,1,,
,CITI0000004,4900.0,1,1,,
,VIJB0001085,2943.0,1,1,,
,VIJB0004174,1500.0,2,1,,
,BKID0004964,950.0,1,1,,RemitterIFSCCode,RecipientIFSCCode,TxnValue,TxnVolume,TxnSubCategoryCode,others
,SBIN0013427,1000.0,1,1,,
,CITI0000004,4900.0,1,1,,
,VIJB0001085,2943.0,1,1,,
,VIJB0004174,1500.0,2,1,,
,BKID0004964,950.0,1,1,,RemitterIFSCCode,RecipientIFSCCode,TxnValue,TxnVolume,TxnSubCategoryCode,others
,SBIN0013427,1000.0,1,1,,
,CITI0000004,4900.0,1,1,,
,VIJB0001085,2943.0,1,1,,
,VIJB0004174,1500.0,2,1,,
,BKID0004964,950.0,1,1,,RemitterIFSCCode,RecipientIFSCCode,TxnValue,TxnVolume,TxnSubCategoryCode,others
,SBIN0013427,1000.0,1,1,,
,CITI0000004,4900.0,1,1,,
,VIJB0001085,2943.0,1,1,,
,VIJB0004174,1500.0,2,1,,
,BKID0004964,950.0,1,1,,RemitterIFSCCode,RecipientIFSCCode,TxnValue,TxnVolume,TxnSubCategoryCode,others
,SBIN0013427,1000.0,1,1,,
,CITI0000004,4900.0,1,1,,
,VIJB0001085,2943.0,1,1,,
,VIJB0004174,1500.0,2,1,,
,BKID0004964,950.0,1,1,,RemitterIFSCCode,RecipientIFSCCode,TxnValue,TxnVolume,TxnSubCategoryCode,others
,SBIN0013427,1000.0,1,1,,
,CITI0000004,4900.0,1,1,,
,VIJB0001085,2943.0,1,1,,
,VIJB0004174,1500.0,2,1,,
,BKID0004964,950.0,1,1,,RemitterIFSCCode,RecipientIFSCCode,TxnValue,TxnVolume,TxnSubCategoryCode,others
,SBIN0013427,1000.0,1,1,,
,CITI0000004,4900.0,1,1,,
,VIJB0001085,2943.0,1,1,,
,VIJB0004174,1500.0,2,1,,
,BKID0004964,950.0,1,1,,RemitterIFSCCode,RecipientIFSCCode,TxnValue,TxnVolume,TxnSubCategoryCode,others
,SBIN0013427,1000.0,1,1,,
,CITI0000004,4900.0,1,1,,
,VIJB0001085,2943.0,1,1,,
,VIJB0004174,1500.0,2,1,,
,BKID0004964,950.0,1,1,,RemitterIFSCCode,RecipientIFSCCode,TxnValue,TxnVolume,TxnSubCategoryCode,others
,SBIN0013427,1000.0,1,1,,
,CITI0000004,4900.0,1,1,,
,VIJB0001085,2943.0,1,1,,
,VIJB0004174,1500.0,2,1,,
,BKID0004964,950.0,1,1,,RemitterIFSCCode,RecipientIFSCCode,TxnValue,TxnVolume,TxnSubCategoryCode,others
,SBIN0013427,1000.0,1,1,,
,CITI0000004,4900.0,1,1,,
,VIJB0001085,2943.0,1,1,,
,VIJB0004174,1500.0,2,1,,
,BKID0004964,950.0,1,1,,RemitterIFSCCode,RecipientIFSCCode,TxnValue,TxnVolume,TxnSubCategoryCode,others
,SBIN0013427,1000.0,1,1,,
,CITI0000004,4900.0,1,1,,
,VIJB0001085,2943.0,1,1,,
,VIJB0004174,1500.0,2,1,,
,BKID0004964,950.0,1,1,,RemitterIFSCCode,RecipientIFSCCode,TxnValue,TxnVolume,TxnSubCategoryCode,others
,SBIN0013427,1000.0,1,1,,
,CITI0000004,4900.0,1,1,,
,VIJB0001085,2943.0,1,1,,
,VIJB0004174,1500.0,2,1,,
,BKID0004964,950.0,1,1,,RemitterIFSCCode,RecipientIFSCCode,TxnValue,TxnVolume,TxnSubCategoryCode,others
,SBIN0013427,1000.0,1,1,,
,CITI0000004,4900.0,1,1,,
,VIJB0001085,2943.0,1,1,,
,VIJB0004174,1500.0,2,1,,
,BKID0004964,950.0,1,1,,RemitterIFSCCode,RecipientIFSCCode,TxnValue,TxnVolume,TxnSubCategoryCode,others
,SBIN0013427,1000.0,1,1,,
,CITI0000004,4900.0,1,1,,
,VIJB0001085,2943.0,1,1,,
,VIJB0004174,1500.0,2,1,,
,BKID0004964,950.0,1,1,,RemitterIFSCCode,RecipientIFSCCode,TxnValue,TxnVolume,TxnSubCategoryCode,others
,SBIN0013427,1000.0,1,1,,
,CITI0000004,4900.0,1,1,,
,VIJB0001085,2943.0,1,1,,
,VIJB0004174,1500.0,2,1,,
,BKID0004964,950.0,1,1,,RemitterIFSCCode,RecipientIFSCCode,TxnValue,TxnVolume,TxnSubCategoryCode,others
,SBIN0013427,1000.0,1,1,,
,CITI0000004,4900.0,1,1,,
,VIJB0001085,2943.0,1,1,,
,VIJB0004174,1500.0,2,1,,
,BKID0004964,950.0,1,1,,RemitterIFSCCode,RecipientIFSCCode,TxnValue,TxnVolume,TxnSubCategoryCode,others
,SBIN0013427,1000.0,1,1,,
,CITI0000004,4900.0,1,1,,
,VIJB0001085,2943.0,1,1,,
,VIJB0004174,1500.0,2,1,,
,BKID0004964,950.0,1,1,,RemitterIFSCCode,RecipientIFSCCode,TxnValue,TxnVolume,TxnSubCategoryCode,others
,SBIN0013427,1000.0,1,1,,
,CITI0000004,4900.0,1,1,,
,VIJB0001085,2943.0,1,1,,
,VIJB0004174,1500.0,2,1,,
,BKID0004964,950.0,1,1,,RemitterIFSCCode,RecipientIFSCCode,TxnValue,TxnVolume,TxnSubCategoryCode,others
,SBIN0013427,1000.0,1,1,,
,CITI0000004,4900.0,1,1,,
,VIJB0001085,2943.0,1,1,,
,VIJB0004174,1500.0,2,1,,
,BKID0004964,950.0,1,1,,RemitterIFSCCode,RecipientIFSCCode,TxnValue,TxnVolume,TxnSubCategoryCode,others
,SBIN0013427,1000.0,1,1,,
,CITI0000004,4900.0,1,1,,
,VIJB0001085,2943.0,1,1,,
,VIJB0004174,1500.0,2,1,,
,BKID0004964,950.0,1,1,,RemitterIFSCCode,RecipientIFSCCode,TxnValue,TxnVolume,TxnSubCategoryCode,others
,SBIN0013427,1000.0,1,1,,
,CITI0000004,4900.0,1,1,,
,VIJB0001085,2943.0,1,1,,
,VIJB0004174,1500.0,2,1,,
,BKID0004964,950.0,1,1,,RemitterIFSCCode,RecipientIFSCCode,TxnValue,TxnVolume,TxnSubCategoryCode,others
,SBIN0013427,1000.0,1,1,,
,CITI0000004,4900.0,1,1,,
,VIJB0001085,2943.0,1,1,,
,VIJB0004174,1500.0,2,1,,
,BKID0004964,950.0,1,1,,RemitterIFSCCode,RecipientIFSCCode,TxnValue,TxnVolume,TxnSubCategoryCode,others
,SBIN0013427,1000.0,1,1,,
,CITI0000004,4900.0,1,1,,
,VIJB0001085,2943.0,1,1,,
,VIJB0004174,1500.0,2,1,,
,BKID0004964,950.0,1,1,,RemitterIFSCCode,RecipientIFSCCode,TxnValue,TxnVolume,TxnSubCategoryCode,others
,SBIN0013427,1000.0,1,1,,
,CITI0000004,4900.0,1,1,,
,VIJB0001085,2943.0,1,1,,
,VIJB0004174,1500.0,2,1,,
,BKID0004964,950.0,1,1,,